teste.csv

Model,TBS 1062
Firmware Version,CF:91.1CT FV:v26.02
,
Waveform Type,ANALOG
Point Format,Y
Horizontal Units,"s"
Horizontal Scale,0.1
Horizontal Delay,0
Sample Interval,0.0004
Record Length,2500
Gating,0.0% to 100.0%
Probe Attenuation,10X
Vertical Units,"Volts"
Vertical Offset,0
Vertical Scale,5
Vertical Position,1.2
,
,
,
Label,
TIME,CH1
-4.96,-5.4
-4.9596,-5.6
-4.9592,-5.6
-4.9588,-5.4
-4.9584,-5.6
-4.958,-5.6
-4.9576,-5.6
-4.9572,-5.6
-4.9568,-5.6
-4.9564,-5.6
-4.956,-5.6
-4.9556,-5.6
-4.9552,-5.6
-4.9548,-5.6
-4.9544,-5.6
-4.954,-5.6
-4.9536,-5.6
-4.9532,-5.6
-4.9528,-5.6
-4.9524,-5.6
-4.952,-5.6
-4.9516,-5.6
-4.9512,-5.6
-4.9508,-5.6
-4.9504,-5.6
-4.95,-5.6
-4.9496,-5.8
-4.9492,-5.8
-4.9488,-5.8
-4.9484,-5.6
-4.948,-5.6
-4.9476,-5.6
-4.9472,-5.6
-4.9468,-5.8
-4.9464,-5.6
-4.946,-5.6
-4.9456,-5.8
-4.9452,-5.6
-4.9448,-5.6
-4.9444,-5.8
-4.944,-5.8
-4.9436,-5.8
-4.9432,-6
-4.9428,-5.8
-4.9424,-5.8
-4.942,-5.8
-4.9416,-5.8
-4.9412,-6
-4.9408,-5.8
-4.9404,-5.8
-4.94,-5.8
-4.9396,-6
-4.9392,-5.8
-4.9388,-5.8
-4.9384,-6
-4.938,-5.8
-4.9376,-5.8
-4.9372,-6
-4.9368,-6
-4.9364,-5.8
-4.936,-6
-4.9356,-5.8
-4.9352,-6
-4.9348,-6.2
-4.9344,-6
-4.934,-6
-4.9336,-6
-4.9332,-6
-4.9328,-6.2
-4.9324,-6
-4.932,-6.2
-4.9316,-6
-4.9312,-6
-4.9308,-6
-4.9304,-6.2
-4.93,-6
-4.9296,-6.2
-4.9292,-6.2
-4.9288,-6.2
-4.9284,-6.2
-4.928,-6.2
-4.9276,-6
-4.9272,-6
-4.9268,-6.2
-4.9264,-6.2
-4.926,-6
-4.9256,-6.2
-4.9252,-6.2
-4.9248,-6.2
-4.9244,-6.2
-4.924,-6.2
-4.9236,-6.2
-4.9232,-6.2
-4.9228,-6.2
-4.9224,-6.2
-4.922,-6.2
-4.9216,-6.2
-4.9212,-6.2
-4.9208,-6.2
-4.9204,-6.2
-4.92,-6.4
-4.9196,-6.2
-4.9192,-6.2
-4.9188,-6.4
-4.9184,-6.4
-4.918,-6.2
-4.9176,-6.4
-4.9172,-6.4
-4.9168,-6.4
-4.9164,-6.2
-4.916,-6.4
-4.9156,-6.4
-4.9152,-6.6
-4.9148,-6.4
-4.9144,-6.6
-4.914,-6.4
-4.9136,-6.6
-4.9132,-6.6
-4.9128,-6.4
-4.9124,-6.6
-4.912,-6.6
-4.9116,-6.4
-4.9112,-6.6
-4.9108,-6.4
-4.9104,-6.6
-4.91,-6.6
-4.9096,-6.6
-4.9092,-6.6
-4.9088,-6.6
-4.9084,-6.6
-4.908,-6.6
-4.9076,-6.6
-4.9072,-6.6
-4.9068,-6.6
-4.9064,-6.8
-4.906,-6.6
-4.9056,-6.8
-4.9052,-6.8
-4.9048,-6.8
-4.9044,-6.6
-4.904,-6.8
-4.9036,-6.8
-4.9032,-6.8
-4.9028,-6.8
-4.9024,-6.8
-4.902,-6.8
-4.9016,-6.8
-4.9012,-6.8
-4.9008,-6.8
-4.9004,-7
-4.9,-6.8
-4.8996,-6.8
-4.8992,-6.8
-4.8988,-6.8
-4.8984,-7
-4.898,-6.8
-4.8976,-6.8
-4.8972,-7
-4.8968,-7
-4.8964,-6.8
-4.896,-7
-4.8956,-7
-4.8952,-7
-4.8948,-7.2
-4.8944,-7
-4.894,-7
-4.8936,-7
-4.8932,-7.2
-4.8928,-7.2
-4.8924,-7.2
-4.892,-7.2
-4.8916,-7.2
-4.8912,-7.4
-4.8908,-7.2
-4.8904,-7.2
-4.89,-7.2
-4.8896,-7.2
-4.8892,-7.2
-4.8888,-7.4
-4.8884,-7.4
-4.888,-7.4
-4.8876,-7.4
-4.8872,-7.4
-4.8868,-7.2
-4.8864,-7.4
-4.886,-7.4
-4.8856,-7.4
-4.8852,-7.4
-4.8848,-7.4
-4.8844,-7.4
-4.884,-7.4
-4.8836,-7.6
-4.8832,-7.4
-4.8828,-7.6
-4.8824,-7.4
-4.882,-7.4
-4.8816,-7.4
-4.8812,-7.6
-4.8808,-7.6
-4.8804,-7.6
-4.88,-7.6
-4.8796,-7.6
-4.8792,-7.6
-4.8788,-7.6
-4.8784,-7.8
-4.878,-7.8
-4.8776,-7.8
-4.8772,-7.8
-4.8768,-7.8
-4.8764,-7.8
-4.876,-7.6
-4.8756,-8
-4.8752,-7.8
-4.8748,-7.8
-4.8744,-7.8
-4.874,-7.8
-4.8736,-7.8
-4.8732,-7.8
-4.8728,-8
-4.8724,-8
-4.872,-7.8
-4.8716,-8
-4.8712,-8
-4.8708,-8.2
-4.8704,-8.2
-4.87,-8.2
-4.8696,-8.2
-4.8692,-8.2
-4.8688,-8.2
-4.8684,-8.2
-4.868,-8.2
-4.8676,-8.2
-4.8672,-8.2
-4.8668,-8.2
-4.8664,-8.2
-4.866,-8.400001
-4.8656,-8.2
-4.8652,-8.400001
-4.8648,-8.400001
-4.8644,-8.400001
-4.864,-8.400001
-4.8636,-8.400001
-4.8632,-8.400001
-4.8628,-8.6
-4.8624,-8.2
-4.862,-8.400001
-4.8616,-8.6
-4.8612,-8.400001
-4.8608,-8.6
-4.8604,-8.6
-4.86,-8.6
-4.8596,-8.6
-4.8592,-8.6
-4.8588,-8.8
-4.8584,-8.6
-4.858,-8.8
-4.8576,-8.6
-4.8572,-8.8
-4.8568,-8.8
-4.8564,-8.8
-4.856,-8.8
-4.8556,-9
-4.8552,-9
-4.8548,-8.8
-4.8544,-8.8
-4.854,-8.8
-4.8536,-9
-4.8532,-9
-4.8528,-9
-4.8524,-9
-4.852,-9
-4.8516,-9
-4.8512,-9
-4.8508,-9
-4.8504,-9
-4.85,-9
-4.8496,-9
-4.8492,-9.2
-4.8488,-9.2
-4.8484,-9.2
-4.848,-9.2
-4.8476,-9.2
-4.8472,-9.400001
-4.8468,-9.2
-4.8464,-9.2
-4.846,-9.2
-4.8456,-9.400001
-4.8452,-9.400001
-4.8448,-9.400001
-4.8444,-9.400001
-4.844,-9.400001
-4.8436,-9.400001
-4.8432,-9.400001
-4.8428,-9.400001
-4.8424,-9.6
-4.842,-9.400001
-4.8416,-9.400001
-4.8412,-9.6
-4.8408,-9.6
-4.8404,-9.8
-4.84,-9.8
-4.8396,-9.8
-4.8392,-9.6
-4.8388,-9.6
-4.8384,-9.6
-4.838,-9.6
-4.8376,-9.6
-4.8372,-9.8
-4.8368,-9.6
-4.8364,-9.8
-4.836,-9.8
-4.8356,-9.8
-4.8352,-9.8
-4.8348,-9.8
-4.8344,-9.8
-4.834,-9.8
-4.8336,-10
-4.8332,-10
-4.8328,-10
-4.8324,-10
-4.832,-10
-4.8316,-10.2
-4.8312,-10
-4.8308,-10.2
-4.8304,-10
-4.83,-10.2
-4.8296,-10.2
-4.8292,-10.2
-4.8288,-10.2
-4.8284,-10.2
-4.828,-10.2
-4.8276,-10.4
-4.8272,-10.4
-4.8268,-10.4
-4.8264,-10.4
-4.826,-10.4
-4.8256,-10.4
-4.8252,-10.4
-4.8248,-10.6
-4.8244,-10.6
-4.824,-10.6
-4.8236,-10.6
-4.8232,-10.4
-4.8228,-10.6
-4.8224,-10.6
-4.822,-10.6
-4.8216,-10.8
-4.8212,-10.8
-4.8208,-10.8
-4.8204,-10.6
-4.82,-10.8
-4.8196,-10.6
-4.8192,-10.6
-4.8188,-10.6
-4.8184,-10.8
-4.818,-10.8
-4.8176,-10.8
-4.8172,-10.8
-4.8168,-11
-4.8164,-10.8
-4.816,-10.8
-4.8156,-11
-4.8152,-11
-4.8148,-11
-4.8144,-11
-4.814,-11.2
-4.8136,-11.2
-4.8132,-11.2
-4.8128,-11.2
-4.8124,-11.2
-4.812,-11
-4.8116,-11.2
-4.8112,-11
-4.8108,-11
-4.8104,-11
-4.81,-11
-4.8096,-11.2
-4.8092,-11.2
-4.8088,-11.4
-4.8084,-11.4
-4.808,-11.4
-4.8076,-11.2
-4.8072,-11.2
-4.8068,-11.4
-4.8064,-11.4
-4.806,-11.6
-4.8056,-11.4
-4.8052,-11.2
-4.8048,-11.6
-4.8044,-11.4
-4.804,-11.4
-4.8036,-11.6
-4.8032,-11.4
-4.8028,-11.6
-4.8024,-11.4
-4.802,-11.4
-4.8016,-11.6
-4.8012,-11.6
-4.8008,-11.6
-4.8004,-11.6
-4.8,-11.6
-4.7996,-11.6
-4.7992,-11.6
-4.7988,-11.8
-4.7984,-11.6
-4.798,-11.8
-4.7976,-11.6
-4.7972,-11.8
-4.7968,-11.8
-4.7964,-12
-4.796,-11.8
-4.7956,-12
-4.7952,-11.8
-4.7948,-11.8
-4.7944,-11.8
-4.794,-12
-4.7936,-12
-4.7932,-12
-4.7928,-11.8
-4.7924,-11.8
-4.792,-11.8
-4.7916,-12
-4.7912,-11.8
-4.7908,-12
-4.7904,-11.8
-4.79,-12.2
-4.7896,-12
-4.7892,-12
-4.7888,-12.2
-4.7884,-12
-4.788,-12
-4.7876,-12.2
-4.7872,-12.2
-4.7868,-12.2
-4.7864,-12.2
-4.786,-12.2
-4.7856,-12.2
-4.7852,-12.2
-4.7848,-12.2
-4.7844,-12.2
-4.784,-12.2
-4.7836,-12.2
-4.7832,-12.2
-4.7828,-12.2
-4.7824,-12.2
-4.782,-12.2
-4.7816,-12.2
-4.7812,-12.2
-4.7808,-12.4
-4.7804,-12.2
-4.78,-12.2
-4.7796,-12.4
-4.7792,-12.2
-4.7788,-12.2
-4.7784,-12.4
-4.778,-12.2
-4.7776,-12.4
-4.7772,-12.4
-4.7768,-12.2
-4.7764,-12.4
-4.776,-12.2
-4.7756,-12.4
-4.7752,-12.6
-4.7748,-12.4
-4.7744,-12.4
-4.774,-12.4
-4.7736,-12.4
-4.7732,-12.4
-4.7728,-12.6
-4.7724,-12.4
-4.772,-12.4
-4.7716,-12.6
-4.7712,-12.4
-4.7708,-12.4
-4.7704,-12.4
-4.77,-12.4
-4.7696,-12.6
-4.7692,-12.6
-4.7688,-12.6
-4.7684,-12.6
-4.768,-12.6
-4.7676,-12.4
-4.7672,-12.6
-4.7668,-12.4
-4.7664,-12.6
-4.766,-12.6
-4.7656,-12.4
-4.7652,-12.6
-4.7648,-12.4
-4.7644,-12.6
-4.764,-12.6
-4.7636,-12.6
-4.7632,-12.6
-4.7628,-12.4
-4.7624,-12.6
-4.762,-12.6
-4.7616,-12.6
-4.7612,-12.6
-4.7608,-12.6
-4.7604,-12.4
-4.76,-12.4
-4.7596,-12.4
-4.7592,-12.6
-4.7588,-12.6
-4.7584,-12.4
-4.758,-12.4
-4.7576,-12.4
-4.7572,-12.6
-4.7568,-12.4
-4.7564,-12.6
-4.756,-12.4
-4.7556,-12.4
-4.7552,-12.4
-4.7548,-12.6
-4.7544,-12.4
-4.754,-12.4
-4.7536,-12.4
-4.7532,-12.4
-4.7528,-12.4
-4.7524,-12.6
-4.752,-12.4
-4.7516,-12.2
-4.7512,-12.4
-4.7508,-12.4
-4.7504,-12.6
-4.75,-12.4
-4.7496,-12.6
-4.7492,-12.4
-4.7488,-12.2
-4.7484,-12.4
-4.748,-12.4
-4.7476,-12.2
-4.7472,-12.4
-4.7468,-12.4
-4.7464,-12.4
-4.746,-12.4
-4.7456,-12.4
-4.7452,-12.2
-4.7448,-12.2
-4.7444,-12.2
-4.744,-12.2
-4.7436,-12.4
-4.7432,-12.2
-4.7428,-12.2
-4.7424,-12.2
-4.742,-12.4
-4.7416,-12.2
-4.7412,-12.2
-4.7408,-12.2
-4.7404,-12.2
-4.74,-12.2
-4.7396,-12
-4.7392,-12
-4.7388,-11.8
-4.7384,-12
-4.738,-12
-4.7376,-12
-4.7372,-11.8
-4.7368,-12
-4.7364,-12
-4.736,-12
-4.7356,-11.8
-4.7352,-12
-4.7348,-11.8
-4.7344,-11.8
-4.734,-11.8
-4.7336,-11.8
-4.7332,-11.8
-4.7328,-11.6
-4.7324,-11.6
-4.732,-11.8
-4.7316,-11.6
-4.7312,-11.6
-4.7308,-11.6
-4.7304,-11.6
-4.73,-11.2
-4.7296,-11.4
-4.7292,-11.4
-4.7288,-11.2
-4.7284,-11.2
-4.728,-11.2
-4.7276,-11.2
-4.7272,-11.2
-4.7268,-11.2
-4.7264,-11.2
-4.726,-11
-4.7256,-11
-4.7252,-10.8
-4.7248,-10.8
-4.7244,-10.6
-4.724,-10.6
-4.7236,-10.6
-4.7232,-10.4
-4.7228,-10.4
-4.7224,-10.2
-4.722,-10.2
-4.7216,-10
-4.7212,-10
-4.7208,-9.8
-4.7204,-9.8
-4.72,-9.8
-4.7196,-9.6
-4.7192,-9.400001
-4.7188,-9.2
-4.7184,-9.2
-4.718,-9.400001
-4.7176,-9.2
-4.7172,-9.2
-4.7168,-9.400001
-4.7164,-9.400001
-4.716,-9.6
-4.7156,-10
-4.7152,-10
-4.7148,-10.2
-4.7144,-10.2
-4.714,-10.4
-4.7136,-10.4
-4.7132,-10.4
-4.7128,-10.4
-4.7124,-10.4
-4.712,-10.4
-4.7116,-10.4
-4.7112,-10.6
-4.7108,-10.4
-4.7104,-10.4
-4.71,-10.4
-4.7096,-10.4
-4.7092,-10.4
-4.7088,-10.2
-4.7084,-10.2
-4.708,-10
-4.7076,-10.2
-4.7072,-10.2
-4.7068,-10
-4.7064,-9.8
-4.706,-9.8
-4.7056,-9.6
-4.7052,-9.6
-4.7048,-9.8
-4.7044,-9.400001
-4.704,-9.400001
-4.7036,-9.400001
-4.7032,-9.2
-4.7028,-9.2
-4.7024,-9
-4.702,-8.8
-4.7016,-8.8
-4.7012,-8.400001
-4.7008,-8.400001
-4.7004,-8.400001
-4.7,-8.2
-4.6996,-8.2
-4.6992,-8
-4.6988,-7.8
-4.6984,-7.8
-4.698,-7.6
-4.6976,-7.2
-4.6972,-7.2
-4.6968,-6.8
-4.6964,-6.8
-4.696,-6.8
-4.6956,-6.4
-4.6952,-6
-4.6948,-5.8
-4.6944,-5.4
-4.694,-5.2
-4.6936,-5
-4.6932,-4.8
-4.6928,-4.6
-4.6924,-4.2
-4.692,-4.4
-4.6916,-4.4
-4.6912,-4.4
-4.6908,-4.4
-4.6904,-4.4
-4.69,-4.6
-4.6896,-4.4
-4.6892,-4.6
-4.6888,-4.8
-4.6884,-5
-4.688,-5
-4.6876,-5.2
-4.6872,-5.4
-4.6868,-5.4
-4.6864,-5.4
-4.686,-5.6
-4.6856,-5.6
-4.6852,-5.6
-4.6848,-5.6
-4.6844,-5.6
-4.684,-5.6
-4.6836,-5.6
-4.6832,-5.6
-4.6828,-5.6
-4.6824,-5.6
-4.682,-5.4
-4.6816,-5.4
-4.6812,-4.8
-4.6808,-5
-4.6804,-5
-4.68,-5
-4.6796,-5
-4.6792,-5
-4.6788,-4.8
-4.6784,-4.6
-4.678,-4.4
-4.6776,-4.4
-4.6772,-4.2
-4.6768,-4.8
-4.6764,-4.8
-4.676,-4.6
-4.6756,-4.6
-4.6752,-4.6
-4.6748,-5.2
-4.6744,-5.4
-4.674,-5.6
-4.6736,-5.8
-4.6732,-6
-4.6728,-6
-4.6724,-6.2
-4.672,-6.2
-4.6716,-6.2
-4.6712,-6.6
-4.6708,-6.4
-4.6704,-6.8
-4.67,-6.8
-4.6696,-6.8
-4.6692,-6.8
-4.6688,-7
-4.6684,-7
-4.668,-7
-4.6676,-7.2
-4.6672,-7.2
-4.6668,-7
-4.6664,-7.2
-4.666,-7.2
-4.6656,-7.2
-4.6652,-7.4
-4.6648,-7.4
-4.6644,-7.2
-4.664,-7.4
-4.6636,-7.4
-4.6632,-7.6
-4.6628,-7.4
-4.6624,-7.6
-4.662,-7.8
-4.6616,-7.8
-4.6612,-7.6
-4.6608,-7.8
-4.6604,-7.8
-4.66,-8
-4.6596,-8
-4.6592,-8.2
-4.6588,-8.2
-4.6584,-8.2
-4.658,-8.2
-4.6576,-8.2
-4.6572,-8.2
-4.6568,-8.2
-4.6564,-8.2
-4.656,-8.2
-4.6556,-8.2
-4.6552,-8.2
-4.6548,-8.2
-4.6544,-8.2
-4.654,-8
-4.6536,-8.2
-4.6532,-8.2
-4.6528,-8.2
-4.6524,-8.2
-4.652,-8.2
-4.6516,-8
-4.6512,-8.2
-4.6508,-8
-4.6504,-7.8
-4.65,-8
-4.6496,-7.8
-4.6492,-7.8
-4.6488,-8
-4.6484,-8
-4.648,-8
-4.6476,-8
-4.6472,-8
-4.6468,-8.2
-4.6464,-8.2
-4.646,-8.2
-4.6456,-8.2
-4.6452,-8.2
-4.6448,-8.2
-4.6444,-8.2
-4.644,-8.400001
-4.6436,-8.400001
-4.6432,-8.400001
-4.6428,-8.400001
-4.6424,-8.400001
-4.642,-8.400001
-4.6416,-8.400001
-4.6412,-8.6
-4.6408,-8.6
-4.6404,-8.6
-4.64,-8.6
-4.6396,-8.6
-4.6392,-8.6
-4.6388,-8.6
-4.6384,-8.6
-4.638,-8.6
-4.6376,-8.6
-4.6372,-8.6
-4.6368,-8.400001
-4.6364,-8.6
-4.636,-8.6
-4.6356,-8.6
-4.6352,-8.6
-4.6348,-8.6
-4.6344,-8.400001
-4.634,-8.6
-4.6336,-8.400001
-4.6332,-8.6
-4.6328,-8.400001
-4.6324,-8.6
-4.632,-8.400001
-4.6316,-8.400001
-4.6312,-8.400001
-4.6308,-8.400001
-4.6304,-8.6
-4.63,-8.400001
-4.6296,-8.400001
-4.6292,-8.400001
-4.6288,-8.400001
-4.6284,-8.400001
-4.628,-8.6
-4.6276,-8.400001
-4.6272,-8.6
-4.6268,-8.6
-4.6264,-8.6
-4.626,-8.400001
-4.6256,-8.400001
-4.6252,-8.400001
-4.6248,-8.400001
-4.6244,-8.2
-4.624,-8.2
-4.6236,-8.2
-4.6232,-8.400001
-4.6228,-8.2
-4.6224,-8.400001
-4.622,-8.2
-4.6216,-8.2
-4.6212,-8.2
-4.6208,-8
-4.6204,-8.2
-4.62,-8.2
-4.6196,-8.2
-4.6192,-8.2
-4.6188,-8
-4.6184,-8
-4.618,-8
-4.6176,-8
-4.6172,-8
-4.6168,-8
-4.6164,-8
-4.616,-8
-4.6156,-7.8
-4.6152,-8
-4.6148,-7.8
-4.6144,-8
-4.614,-7.8
-4.6136,-8
-4.6132,-7.8
-4.6128,-7.8
-4.6124,-7.6
-4.612,-7.8
-4.6116,-7.6
-4.6112,-7.8
-4.6108,-7.6
-4.6104,-7.4
-4.61,-7.6
-4.6096,-7.8
-4.6092,-7.6
-4.6088,-7.4
-4.6084,-7.6
-4.608,-7.4
-4.6076,-7.4
-4.6072,-7.4
-4.6068,-7.4
-4.6064,-7.4
-4.606,-7.2
-4.6056,-7.2
-4.6052,-7.2
-4.6048,-7.2
-4.6044,-7.2
-4.604,-7.2
-4.6036,-7
-4.6032,-7.2
-4.6028,-7
-4.6024,-7
-4.602,-7
-4.6016,-7.2
-4.6012,-7
-4.6008,-6.8
-4.6004,-7
-4.6,-6.8
-4.5996,-6.8
-4.5992,-6.8
-4.5988,-6.8
-4.5984,-6.8
-4.598,-6.8
-4.5976,-6.8
-4.5972,-6.6
-4.5968,-6.6
-4.5964,-6.6
-4.596,-6.8
-4.5956,-6.6
-4.5952,-6.6
-4.5948,-6.6
-4.5944,-6.6
-4.594,-6.4
-4.5936,-6.6
-4.5932,-6.4
-4.5928,-6.2
-4.5924,-6.4
-4.592,-6.4
-4.5916,-6.2
-4.5912,-6.2
-4.5908,-6.2
-4.5904,-6.2
-4.59,-6.2
-4.5896,-6.4
-4.5892,-6.2
-4.5888,-6
-4.5884,-6.2
-4.588,-6
-4.5876,-5.8
-4.5872,-5.8
-4.5868,-5.8
-4.5864,-5.8
-4.586,-5.6
-4.5856,-5.6
-4.5852,-5.8
-4.5848,-5.6
-4.5844,-5.6
-4.584,-5.6
-4.5836,-5.6
-4.5832,-5.6
-4.5828,-5.6
-4.5824,-5.4
-4.582,-5.2
-4.5816,-5.4
-4.5812,-5.4
-4.5808,-5.4
-4.5804,-5.4
-4.58,-5.2
-4.5796,-5.4
-4.5792,-5.2
-4.5788,-5.2
-4.5784,-5
-4.578,-5
-4.5776,-5.2
-4.5772,-5.2
-4.5768,-5.2
-4.5764,-5
-4.576,-5
-4.5756,-4.8
-4.5752,-5
-4.5748,-5
-4.5744,-4.8
-4.574,-4.8
-4.5736,-4.8
-4.5732,-4.8
-4.5728,-4.6
-4.5724,-4.6
-4.572,-4.6
-4.5716,-4.6
-4.5712,-4.6
-4.5708,-4.4
-4.5704,-4.6
-4.57,-4.4
-4.5696,-4.4
-4.5692,-4.6
-4.5688,-4.4
-4.5684,-4.4
-4.568,-4.4
-4.5676,-4.4
-4.5672,-4.4
-4.5668,-4.4
-4.5664,-4.2
-4.566,-4.4
-4.5656,-4.4
-4.5652,-4.2
-4.5648,-4
-4.5644,-4
-4.564,-4.2
-4.5636,-4.2
-4.5632,-4.2
-4.5628,-4
-4.5624,-4
-4.562,-4
-4.5616,-4.2
-4.5612,-3.8
-4.5608,-3.8
-4.5604,-3.8
-4.56,-3.8
-4.5596,-3.8
-4.5592,-3.6
-4.5588,-3.6
-4.5584,-3.8
-4.558,-3.6
-4.5576,-3.6
-4.5572,-3.4
-4.5568,-3.6
-4.5564,-3.6
-4.556,-3.6
-4.5556,-3.6
-4.5552,-3.4
-4.5548,-3.4
-4.5544,-3.4
-4.554,-3.4
-4.5536,-3.4
-4.5532,-3.4
-4.5528,-3.4
-4.5524,-3.2
-4.552,-3.4
-4.5516,-3.4
-4.5512,-3.2
-4.5508,-3.2
-4.5504,-3.2
-4.55,-3.2
-4.5496,-3.2
-4.5492,-3
-4.5488,-3
-4.5484,-3
-4.548,-3
-4.5476,-3
-4.5472,-3
-4.5468,-3
-4.5464,-3
-4.546,-3
-4.5456,-2.8
-4.5452,-2.8
-4.5448,-2.8
-4.5444,-2.8
-4.544,-3
-4.5436,-2.8
-4.5432,-2.8
-4.5428,-2.8
-4.5424,-2.8
-4.542,-2.8
-4.5416,-2.6
-4.5412,-2.6
-4.5408,-2.8
-4.5404,-2.6
-4.54,-2.6
-4.5396,-2.6
-4.5392,-2.6
-4.5388,-2.4
-4.5384,-2.6
-4.538,-2.4
-4.5376,-2.4
-4.5372,-2.4
-4.5368,-2.4
-4.5364,-2.4
-4.536,-2.4
-4.5356,-2.4
-4.5352,-2.4
-4.5348,-2.4
-4.5344,-2.2
-4.534,-2.4
-4.5336,-2.4
-4.5332,-2.2
-4.5328,-2.4
-4.5324,-2.2
-4.532,-2.2
-4.5316,-2.2
-4.5312,-2.2
-4.5308,-2.2
-4.5304,-2
-4.53,-2.2
-4.5296,-2.2
-4.5292,-2.2
-4.5288,-2.2
-4.5284,-2.2
-4.528,-2.2
-4.5276,-2.2
-4.5272,-2
-4.5268,-2
-4.5264,-2
-4.526,-1.8
-4.5256,-2
-4.5252,-2
-4.5248,-1.8
-4.5244,-2
-4.524,-2
-4.5236,-2
-4.5232,-1.8
-4.5228,-1.8
-4.5224,-1.8
-4.522,-1.8
-4.5216,-1.8
-4.5212,-1.8
-4.5208,-1.8
-4.5204,-1.8
-4.52,-1.8
-4.5196,-1.6
-4.5192,-1.8
-4.5188,-1.6
-4.5184,-1.6
-4.518,-1.6
-4.5176,-1.8
-4.5172,-1.6
-4.5168,-1.8
-4.5164,-1.6
-4.516,-1.8
-4.5156,-1.6
-4.5152,-1.6
-4.5148,-1.6
-4.5144,-1.6
-4.514,-1.8
-4.5136,-1.6
-4.5132,-1.6
-4.5128,-1.6
-4.5124,-1.6
-4.512,-1.6
-4.5116,-1.6
-4.5112,-1.6
-4.5108,-1.6
-4.5104,-1.6
-4.51,-1.4
-4.5096,-1.6
-4.5092,-1.6
-4.5088,-1.6
-4.5084,-1.4
-4.508,-1.6
-4.5076,-1.6
-4.5072,-1.4
-4.5068,-1.4
-4.5064,-1.6
-4.506,-1.4
-4.5056,-1.4
-4.5052,-1.4
-4.5048,-1.4
-4.5044,-1.6
-4.504,-1.4
-4.5036,-1.4
-4.5032,-1.4
-4.5028,-1.4
-4.5024,-1.4
-4.502,-1.4
-4.5016,-1.4
-4.5012,-1.4
-4.5008,-1.4
-4.5004,-1.4
-4.5,-1.4
-4.4996,-1.4
-4.4992,-1.4
-4.4988,-1.4
-4.4984,-1.4
-4.498,-1.2
-4.4976,-1.6
-4.4972,-1.2
-4.4968,-1.4
-4.4964,-1.4
-4.496,-1.4
-4.4956,-1.2
-4.4952,-1.2
-4.4948,-1.2
-4.4944,-1.2
-4.494,-1.2
-4.4936,-1.4
-4.4932,-1.4
-4.4928,-1.2
-4.4924,-1.2
-4.492,-1.2
-4.4916,-1.2
-4.4912,-1.2
-4.4908,-1.2
-4.4904,-1.2
-4.49,-1.2
-4.4896,-1.2
-4.4892,-1.4
-4.4888,-1.2
-4.4884,-1.2
-4.488,-1.2
-4.4876,-1.2
-4.4872,-1.2
-4.4868,-1.2
-4.4864,-1.2
-4.486,-1
-4.4856,-1.2
-4.4852,-1.2
-4.4848,-1
-4.4844,-1
-4.484,-1.2
-4.4836,-1.2
-4.4832,-1.2
-4.4828,-1
-4.4824,-1.2
-4.482,-1
-4.4816,-1.2
-4.4812,-1.2
-4.4808,-1.2
-4.4804,-1.2
-4.48,-1.2
-4.4796,-1.2
-4.4792,-1
-4.4788,-1.2
-4.4784,-1.2
-4.478,-1
-4.4776,-1
-4.4772,-1
-4.4768,-1
-4.4764,-1.2
-4.476,-1
-4.4756,-1
-4.4752,-1.2
-4.4748,-1
-4.4744,-1
-4.474,-1.2
-4.4736,-1
-4.4732,-1
-4.4728,-1.2
-4.4724,-1
-4.472,-1
-4.4716,-1.2
-4.4712,-1
-4.4708,-1
-4.4704,-1
-4.47,-1.2
-4.4696,-1.2
-4.4692,-1
-4.4688,-1
-4.4684,-1.2
-4.468,-1.2
-4.4676,-1
-4.4672,-1
-4.4668,-1.2
-4.4664,-1.2
-4.466,-1
-4.4656,-1
-4.4652,-1.2
-4.4648,-1.2
-4.4644,-1
-4.464,-1
-4.4636,-1
-4.4632,-1
-4.4628,-1
-4.4624,-1
-4.462,-1.2
-4.4616,-1
-4.4612,-1
-4.4608,-1.2
-4.4604,-1.2
-4.46,-1
-4.4596,-1.2
-4.4592,-1.2
-4.4588,-1.2
-4.4584,-1.2
-4.458,-1
-4.4576,-1
-4.4572,-1.2
-4.4568,-1.2
-4.4564,-1.2
-4.456,-1.2
-4.4556,-1
-4.4552,-1
-4.4548,-1.2
-4.4544,-1
-4.454,-1.2
-4.4536,-1.2
-4.4532,-1.2
-4.4528,-1.2
-4.4524,-1
-4.452,-1.2
-4.4516,-1
-4.4512,-1
-4.4508,-1.2
-4.4504,-1.2
-4.45,-1
-4.4496,-1.2
-4.4492,-1.2
-4.4488,-1.2
-4.4484,-1.2
-4.448,-1.2
-4.4476,-1.2
-4.4472,-1.2
-4.4468,-1.2
-4.4464,-1.2
-4.446,-1
-4.4456,-1.2
-4.4452,-1.2
-4.4448,-1.4
-4.4444,-1.2
-4.444,-1.2
-4.4436,-1.2
-4.4432,-1.4
-4.4428,-1.2
-4.4424,-1
-4.442,-1.2
-4.4416,-1.2
-4.4412,-1.2
-4.4408,-1.2
-4.4404,-1.2
-4.44,-1.2
-4.4396,-1.2
-4.4392,-1.2
-4.4388,-1.2
-4.4384,-1.4
-4.438,-1.2
-4.4376,-1.2
-4.4372,-1.2
-4.4368,-1.2
-4.4364,-1.4
-4.436,-1.2
-4.4356,-1.2
-4.4352,-1.4
-4.4348,-1.4
-4.4344,-1.6
-4.434,-1.4
-4.4336,-1.4
-4.4332,-1.2
-4.4328,-1.6
-4.4324,-1.4
-4.432,-1.4
-4.4316,-1.4
-4.4312,-1.4
-4.4308,-1.4
-4.4304,-1.4
-4.43,-1.4
-4.4296,-1.4
-4.4292,-1.4
-4.4288,-1.4
-4.4284,-1.4
-4.428,-1.6
-4.4276,-1.4
-4.4272,-1.2
-4.4268,-1.4
-4.4264,-1.6
-4.426,-1.4
-4.4256,-1.4
-4.4252,-1.4
-4.4248,-1.4
-4.4244,-1.4
-4.424,-1.6
-4.4236,-1.6
-4.4232,-1.4
-4.4228,-1.4
-4.4224,-1.4
-4.422,-1.6
-4.4216,-1.4
-4.4212,-1.4
-4.4208,-1.6
-4.4204,-1.6
-4.42,-1.6
-4.4196,-1.6
-4.4192,-1.4
-4.4188,-1.6
-4.4184,-1.6
-4.418,-1.6
-4.4176,-1.6
-4.4172,-1.6
-4.4168,-1.6
-4.4164,-1.6
-4.416,-1.4
-4.4156,-1.6
-4.4152,-1.6
-4.4148,-1.6
-4.4144,-1.6
-4.414,-1.6
-4.4136,-1.6
-4.4132,-1.6
-4.4128,-1.8
-4.4124,-1.6
-4.412,-1.6
-4.4116,-1.6
-4.4112,-1.6
-4.4108,-1.6
-4.4104,-1.8
-4.41,-1.6
-4.4096,-1.6
-4.4092,-1.6
-4.4088,-1.6
-4.4084,-1.8
-4.408,-1.6
-4.4076,-1.8
-4.4072,-1.8
-4.4068,-1.8
-4.4064,-1.6
-4.406,-1.8
-4.4056,-1.8
-4.4052,-1.8
-4.4048,-1.8
-4.4044,-1.8
-4.404,-1.8
-4.4036,-1.8
-4.4032,-1.8
-4.4028,-2
-4.4024,-1.8
-4.402,-2
-4.4016,-2
-4.4012,-2
-4.4008,-1.8
-4.4004,-2
-4.4,-2
-4.3996,-2
-4.3992,-2
-4.3988,-2
-4.3984,-2
-4.398,-2
-4.3976,-1.8
-4.3972,-2
-4.3968,-2
-4.3964,-2
-4.396,-2
-4.3956,-1.8
-4.3952,-2
-4.3948,-2
-4.3944,-2.2
-4.394,-2
-4.3936,-2.2
-4.3932,-2
-4.3928,-2
-4.3924,-2.2
-4.392,-2.2
-4.3916,-2
-4.3912,-2.2
-4.3908,-2.2
-4.3904,-2.2
-4.39,-2.4
-4.3896,-2.4
-4.3892,-2.2
-4.3888,-2.4
-4.3884,-2.2
-4.388,-2.2
-4.3876,-2.4
-4.3872,-2.2
-4.3868,-2.2
-4.3864,-2.4
-4.386,-2.2
-4.3856,-2.4
-4.3852,-2.4
-4.3848,-2.4
-4.3844,-2.4
-4.384,-2.4
-4.3836,-2.4
-4.3832,-2.4
-4.3828,-2.4
-4.3824,-2.6
-4.382,-2.4
-4.3816,-2.4
-4.3812,-2.4
-4.3808,-2.4
-4.3804,-2.6
-4.38,-2.6
-4.3796,-2.6
-4.3792,-2.4
-4.3788,-2.6
-4.3784,-2.6
-4.378,-2.4
-4.3776,-2.6
-4.3772,-2.6
-4.3768,-2.6
-4.3764,-2.8
-4.376,-2.6
-4.3756,-2.6
-4.3752,-2.6
-4.3748,-2.6
-4.3744,-2.6
-4.374,-2.8
-4.3736,-2.8
-4.3732,-2.8
-4.3728,-2.8
-4.3724,-2.8
-4.372,-2.8
-4.3716,-2.8
-4.3712,-2.8
-4.3708,-3
-4.3704,-2.8
-4.37,-2.8
-4.3696,-3
-4.3692,-2.8
-4.3688,-2.8
-4.3684,-3
-4.368,-3
-4.3676,-2.8
-4.3672,-3
-4.3668,-2.8
-4.3664,-3
-4.366,-3
-4.3656,-3
-4.3652,-3
-4.3648,-3
-4.3644,-3
-4.364,-3
-4.3636,-3
-4.3632,-3
-4.3628,-3.2
-4.3624,-3.2
-4.362,-3.2
-4.3616,-3
-4.3612,-3.2
-4.3608,-3.2
-4.3604,-3.2
-4.36,-3.2
-4.3596,-3.2
-4.3592,-3.2
-4.3588,-3.2
-4.3584,-3.2
-4.358,-3.2
-4.3576,-3.2
-4.3572,-3.2
-4.3568,-3.4
-4.3564,-3.4
-4.356,-3.4
-4.3556,-3.4
-4.3552,-3.4
-4.3548,-3.4
-4.3544,-3.4
-4.354,-3.4
-4.3536,-3.4
-4.3532,-3.4
-4.3528,-3.4
-4.3524,-3.4
-4.352,-3.6
-4.3516,-3.4
-4.3512,-3.6
-4.3508,-3.6
-4.3504,-3.4
-4.35,-3.6
-4.3496,-3.6
-4.3492,-3.6
-4.3488,-3.6
-4.3484,-3.6
-4.348,-3.4
-4.3476,-3.6
-4.3472,-3.6
-4.3468,-3.8
