EIT_100323/medida4_EIT_media4pts.CSV

Model,TBS 1062,
Firmware Version,CF:91.1CT FV:v26.02,
,,
Waveform Type,ANALOG,ANALOG
Point Format,Y,Y
Horizontal Units,"s","s"
Horizontal Scale,0.1,0.1
Horizontal Delay,0,0
Sample Interval,0.0004,0.0004
Record Length,2500,2500
Gating,0.0% to 100.0%,0.0% to 100.0%
Probe Attenuation,10X,10X
Vertical Units,"Volts","Volts"
Vertical Offset,0,0
Vertical Scale,5,0.2
Vertical Position,164,-9.2
,,
,,
,,
Label,,
TIME,CH1,CH2
-4.64,-8.19916E+07,18380
-4.6396,-8.19918E+07,18380
-4.6392,-8.19916E+07,18380
-4.6388,-8.19916E+07,18380.8
-4.6384,-8.19916E+07,18379.2
-4.638,-8.19918E+07,18379.2
-4.6376,-8.19918E+07,18380
-4.6372,-8.19918E+07,18379.2
-4.6368,-8.19918E+07,18380
-4.6364,-8.19916E+07,18379.2
-4.636,-8.19916E+07,18379.2
-4.6356,-8.19918E+07,18378.4
-4.6352,-8.19918E+07,18379.2
-4.6348,-8.19918E+07,18379.2
-4.6344,-8.19918E+07,18378.4
-4.634,-8.19918E+07,18379.2
-4.6336,-8.19918E+07,18380
-4.6332,-8.19918E+07,18379.2
-4.6328,-8.19918E+07,18378.4
-4.6324,-8.19918E+07,18378.4
-4.632,-8.19918E+07,18378.4
-4.6316,-8.19918E+07,18377.6
-4.6312,-8.19918E+07,18377.6
-4.6308,-8.19918E+07,18378.4
-4.6304,-8.19918E+07,18378.4
-4.63,-8.19918E+07,18378.4
-4.6296,-8.19918E+07,18377.6
-4.6292,-8.19918E+07,18376.8
-4.6288,-8.1992E+07,18376.8
-4.6284,-8.1992E+07,18376.8
-4.628,-8.19918E+07,18377.6
-4.6276,-8.19918E+07,18376.8
-4.6272,-8.1992E+07,18377.6
-4.6268,-8.1992E+07,18376.8
-4.6264,-8.1992E+07,18376.8
-4.626,-8.1992E+07,18376
-4.6256,-8.1992E+07,18376
-4.6252,-8.19918E+07,18376
-4.6248,-8.19918E+07,18376.8
-4.6244,-8.1992E+07,18376
-4.624,-8.1992E+07,18376.8
-4.6236,-8.1992E+07,18376.8
-4.6232,-8.1992E+07,18376
-4.6228,-8.1992E+07,18376.8
-4.6224,-8.1992E+07,18377.6
-4.622,-8.1992E+07,18377.6
-4.6216,-8.1992E+07,18375.2
-4.6212,-8.1992E+07,18375.2
-4.6208,-8.19922E+07,18374.4
-4.6204,-8.1992E+07,18376
-4.62,-8.19922E+07,18376
-4.6196,-8.19922E+07,18376.8
-4.6192,-8.19922E+07,18376
-4.6188,-8.19922E+07,18376
-4.6184,-8.19922E+07,18374.4
-4.618,-8.19922E+07,18375.2
-4.6176,-8.19922E+07,18376
-4.6172,-8.19922E+07,18376
-4.6168,-8.19922E+07,18376
-4.6164,-8.19922E+07,18375.2
-4.616,-8.19922E+07,18376
-4.6156,-8.19922E+07,18375.2
-4.6152,-8.19922E+07,18375.2
-4.6148,-8.19922E+07,18373.6
-4.6144,-8.19922E+07,18375.2
-4.614,-8.19922E+07,18374.4
-4.6136,-8.19922E+07,18375.2
-4.6132,-8.19922E+07,18374.4
-4.6128,-8.19924E+07,18376
-4.6124,-8.19924E+07,18374.4
-4.612,-8.19922E+07,18373.6
-4.6116,-8.19922E+07,18374.4
-4.6112,-8.19924E+07,18373.6
-4.6108,-8.19924E+07,18374.4
-4.6104,-8.19924E+07,18372.8
-4.61,-8.19924E+07,18374.4
-4.6096,-8.19924E+07,18373.6
-4.6092,-8.19924E+07,18375.2
-4.6088,-8.19924E+07,18375.2
-4.6084,-8.19924E+07,18372.8
-4.608,-8.19924E+07,18372.8
-4.6076,-8.19924E+07,18373.6
-4.6072,-8.19924E+07,18373.6
-4.6068,-8.19924E+07,18371.2
-4.6064,-8.19924E+07,18374.4
-4.606,-8.19924E+07,18373.6
-4.6056,-8.19924E+07,18372.8
-4.6052,-8.19926E+07,18371.2
-4.6048,-8.19926E+07,18371.2
-4.6044,-8.19926E+07,18372.8
-4.604,-8.19924E+07,18371.2
-4.6036,-8.19926E+07,18370.4
-4.6032,-8.19926E+07,18371.2
-4.6028,-8.19926E+07,18373.6
-4.6024,-8.19926E+07,18370.4
-4.602,-8.19926E+07,18370.4
-4.6016,-8.19926E+07,18369.6
-4.6012,-8.19926E+07,18370.4
-4.6008,-8.19926E+07,18372
-4.6004,-8.19926E+07,18369.6
-4.6,-8.19926E+07,18368.8
-4.5996,-8.19926E+07,18369.6
-4.5992,-8.19926E+07,18369.6
-4.5988,-8.19926E+07,18369.6
-4.5984,-8.19928E+07,18369.6
-4.598,-8.19926E+07,18368
-4.5976,-8.19928E+07,18368.8
-4.5972,-8.19928E+07,18369.6
-4.5968,-8.19928E+07,18368
-4.5964,-8.19928E+07,18368.8
-4.596,-8.19928E+07,18367.2
-4.5956,-8.19928E+07,18368.8
-4.5952,-8.19928E+07,18366.4
-4.5948,-8.19928E+07,18366.4
-4.5944,-8.19928E+07,18368.8
-4.594,-8.19928E+07,18368
-4.5936,-8.19928E+07,18367.2
-4.5932,-8.19928E+07,18366.4
-4.5928,-8.1993E+07,18367.2
-4.5924,-8.1993E+07,18367.2
-4.592,-8.1993E+07,18369.6
-4.5916,-8.19928E+07,18366.4
-4.5912,-8.1993E+07,18367.2
-4.5908,-8.1993E+07,18366.4
-4.5904,-8.1993E+07,18368
-4.59,-8.1993E+07,18365.6
-4.5896,-8.1993E+07,18365.6
-4.5892,-8.1993E+07,18365.6
-4.5888,-8.1993E+07,18366.4
-4.5884,-8.1993E+07,18366.4
-4.588,-8.1993E+07,18364
-4.5876,-8.1993E+07,18366.4
-4.5872,-8.19932E+07,18365.6
-4.5868,-8.1993E+07,18365.6
-4.5864,-8.1993E+07,18364.8
-4.586,-8.19932E+07,18364.8
-4.5856,-8.19932E+07,18364.8
-4.5852,-8.19932E+07,18366.4
-4.5848,-8.19932E+07,18364
-4.5844,-8.19932E+07,18364
-4.584,-8.19932E+07,18363.2
-4.5836,-8.19932E+07,18363.2
-4.5832,-8.19932E+07,18366.4
-4.5828,-8.19932E+07,18364.8
-4.5824,-8.19932E+07,18365.6
-4.582,-8.19934E+07,18365.6
-4.5816,-8.19932E+07,18363.2
-4.5812,-8.19932E+07,18364.8
-4.5808,-8.19934E+07,18364
-4.5804,-8.19934E+07,18363.2
-4.58,-8.19934E+07,18364.8
-4.5796,-8.19934E+07,18363.2
-4.5792,-8.19934E+07,18364
-4.5788,-8.19934E+07,18364.8
-4.5784,-8.19934E+07,18364.8
-4.578,-8.19934E+07,18362.4
-4.5776,-8.19934E+07,18366.4
-4.5772,-8.19934E+07,18364
-4.5768,-8.19934E+07,18363.2
-4.5764,-8.19936E+07,18363.2
-4.576,-8.19936E+07,18364
-4.5756,-8.19936E+07,18363.2
-4.5752,-8.19936E+07,18362.4
-4.5748,-8.19936E+07,18363.2
-4.5744,-8.19936E+07,18363.2
-4.574,-8.19936E+07,18364
-4.5736,-8.19936E+07,18364
-4.5732,-8.19936E+07,18363.2
-4.5728,-8.19936E+07,18364
-4.5724,-8.19936E+07,18364
-4.572,-8.19936E+07,18363.2
-4.5716,-8.19936E+07,18363.2
-4.5712,-8.19936E+07,18363.2
-4.5708,-8.19938E+07,18363.2
-4.5704,-8.19938E+07,18361.6
-4.57,-8.19938E+07,18363.2
-4.5696,-8.19938E+07,18362.4
-4.5692,-8.19938E+07,18361.6
-4.5688,-8.19938E+07,18363.2
-4.5684,-8.19938E+07,18360.8
-4.568,-8.19938E+07,18364
-4.5676,-8.1994E+07,18363.2
-4.5672,-8.1994E+07,18363.2
-4.5668,-8.1994E+07,18362.4
-4.5664,-8.1994E+07,18361.6
-4.566,-8.1994E+07,18360.8
-4.5656,-8.1994E+07,18361.6
-4.5652,-8.1994E+07,18361.6
-4.5648,-8.1994E+07,18362.4
-4.5644,-8.1994E+07,18361.6
-4.564,-8.1994E+07,18361.6
-4.5636,-8.1994E+07,18364.8
-4.5632,-8.19942E+07,18362.4
-4.5628,-8.19942E+07,18360.8
-4.5624,-8.19942E+07,18360
-4.562,-8.1994E+07,18362.4
-4.5616,-8.19942E+07,18360.8
-4.5612,-8.19942E+07,18359.2
-4.5608,-8.19942E+07,18360.8
-4.5604,-8.19942E+07,18360.8
-4.56,-8.19942E+07,18359.2
-4.5596,-8.19942E+07,18359.2
-4.5592,-8.19942E+07,18359.2
-4.5588,-8.19942E+07,18359.2
-4.5584,-8.19942E+07,18359.2
-4.558,-8.19944E+07,18361.6
-4.5576,-8.19944E+07,18359.2
-4.5572,-8.19944E+07,18360
-4.5568,-8.19944E+07,18361.6
-4.5564,-8.19944E+07,18360.8
-4.556,-8.19944E+07,18360
-4.5556,-8.19944E+07,18359.2
-4.5552,-8.19944E+07,18360.8
-4.5548,-8.19944E+07,18361.6
-4.5544,-8.19946E+07,18358.4
-4.554,-8.19946E+07,18359.2
-4.5536,-8.19946E+07,18360.8
-4.5532,-8.19946E+07,18359.2
-4.5528,-8.19946E+07,18360
-4.5524,-8.19946E+07,18359.2
-4.552,-8.19946E+07,18358.4
-4.5516,-8.19946E+07,18360
-4.5512,-8.19946E+07,18360.8
-4.5508,-8.19948E+07,18357.6
-4.5504,-8.19946E+07,18359.2
-4.55,-8.19946E+07,18360
-4.5496,-8.19948E+07,18356
-4.5492,-8.19948E+07,18359.2
-4.5488,-8.19948E+07,18357.6
-4.5484,-8.19948E+07,18360.8
-4.548,-8.19948E+07,18359.2
-4.5476,-8.19948E+07,18356.8
-4.5472,-8.1995E+07,18357.6
-4.5468,-8.1995E+07,18356.8
-4.5464,-8.1995E+07,18359.2
-4.546,-8.1995E+07,18357.6
-4.5456,-8.1995E+07,18358.4
-4.5452,-8.1995E+07,18354.4
-4.5448,-8.1995E+07,18356
-4.5444,-8.1995E+07,18356
-4.544,-8.1995E+07,18355.2
-4.5436,-8.1995E+07,18356.8
-4.5432,-8.1995E+07,18356.8
-4.5428,-8.1995E+07,18353.6
-4.5424,-8.19952E+07,18354.4
-4.542,-8.19952E+07,18356
-4.5416,-8.19952E+07,18349.6
-4.5412,-8.19952E+07,18352
-4.5408,-8.19952E+07,18356
-4.5404,-8.19952E+07,18352
-4.54,-8.19952E+07,18352.8
-4.5396,-8.19952E+07,18353.6
-4.5392,-8.19954E+07,18350.4
-4.5388,-8.19954E+07,18349.6
-4.5384,-8.19954E+07,18352
-4.538,-8.19954E+07,18349.6
-4.5376,-8.19956E+07,18349.6
-4.5372,-8.19954E+07,18351.2
-4.5368,-8.19954E+07,18348
-4.5364,-8.19956E+07,18348
-4.536,-8.19956E+07,18348
-4.5356,-8.19956E+07,18348.8
-4.5352,-8.19956E+07,18350.4
-4.5348,-8.19956E+07,18348.8
-4.5344,-8.19956E+07,18348.8
-4.534,-8.19956E+07,18345.6
-4.5336,-8.19956E+07,18350.4
-4.5332,-8.19956E+07,18348
-4.5328,-8.19956E+07,18349.6
-4.5324,-8.19956E+07,18348.8
-4.532,-8.19958E+07,18349.6
-4.5316,-8.19958E+07,18350.4
-4.5312,-8.19956E+07,18349.6
-4.5308,-8.19958E+07,18352
-4.5304,-8.19958E+07,18349.6
-4.53,-8.19958E+07,18350.4
-4.5296,-8.19958E+07,18350.4
-4.5292,-8.19958E+07,18352.8
-4.5288,-8.19958E+07,18351.2
-4.5284,-8.19958E+07,18356
-4.528,-8.1996E+07,18353.6
-4.5276,-8.1996E+07,18354.4
-4.5272,-8.1996E+07,18356.8
-4.5268,-8.1996E+07,18356.8
-4.5264,-8.1996E+07,18356
-4.526,-8.1996E+07,18358.4
-4.5256,-8.1996E+07,18357.6
-4.5252,-8.1996E+07,18354.4
-4.5248,-8.1996E+07,18356.8
-4.5244,-8.19962E+07,18359.2
-4.524,-8.1996E+07,18357.6
-4.5236,-8.19962E+07,18359.2
-4.5232,-8.19962E+07,18359.2
-4.5228,-8.19962E+07,18358.4
-4.5224,-8.19962E+07,18358.4
-4.522,-8.19962E+07,18358.4
-4.5216,-8.19962E+07,18359.2
-4.5212,-8.19962E+07,18358.4
-4.5208,-8.19962E+07,18360.8
-4.5204,-8.19962E+07,18359.2
-4.52,-8.19962E+07,18361.6
-4.5196,-8.19964E+07,18360.8
-4.5192,-8.19964E+07,18361.6
-4.5188,-8.19964E+07,18362.4
-4.5184,-8.19964E+07,18360
-4.518,-8.19964E+07,18360.8
-4.5176,-8.19964E+07,18362.4
-4.5172,-8.19964E+07,18362.4
-4.5168,-8.19964E+07,18360.8
-4.5164,-8.19964E+07,18363.2
-4.516,-8.19964E+07,18362.4
-4.5156,-8.19966E+07,18360.8
-4.5152,-8.19966E+07,18360.8
-4.5148,-8.19966E+07,18361.6
-4.5144,-8.19966E+07,18363.2
-4.514,-8.19966E+07,18363.2
-4.5136,-8.19966E+07,18362.4
-4.5132,-8.19966E+07,18363.2
-4.5128,-8.19968E+07,18362.4
-4.5124,-8.19968E+07,18362.4
-4.512,-8.19966E+07,18361.6
-4.5116,-8.19968E+07,18362.4
-4.5112,-8.19968E+07,18360
-4.5108,-8.19968E+07,18360.8
-4.5104,-8.19968E+07,18360.8
-4.51,-8.19968E+07,18362.4
-4.5096,-8.19968E+07,18360.8
-4.5092,-8.19968E+07,18360.8
-4.5088,-8.19968E+07,18360.8
-4.5084,-8.1997E+07,18360
-4.508,-8.1997E+07,18360
-4.5076,-8.1997E+07,18360
-4.5072,-8.19968E+07,18360
-4.5068,-8.1997E+07,18361.6
-4.5064,-8.1997E+07,18360.8
-4.506,-8.1997E+07,18361.6
-4.5056,-8.1997E+07,18359.2
-4.5052,-8.1997E+07,18360.8
-4.5048,-8.1997E+07,18361.6
-4.5044,-8.1997E+07,18360
-4.504,-8.19972E+07,18361.6
-4.5036,-8.19972E+07,18360.8
-4.5032,-8.19972E+07,18363.2
-4.5028,-8.19972E+07,18362.4
-4.5024,-8.19972E+07,18361.6
-4.502,-8.19972E+07,18363.2
-4.5016,-8.19972E+07,18362.4
-4.5012,-8.19972E+07,18362.4
-4.5008,-8.19972E+07,18364
-4.5004,-8.19972E+07,18363.2
-4.5,-8.19972E+07,18366.4
-4.4996,-8.19972E+07,18365.6
-4.4992,-8.19974E+07,18365.6
-4.4988,-8.19974E+07,18364
-4.4984,-8.19974E+07,18365.6
-4.498,-8.19974E+07,18365.6
-4.4976,-8.19974E+07,18364.8
-4.4972,-8.19974E+07,18367.2
-4.4968,-8.19974E+07,18368.8
-4.4964,-8.19974E+07,18368.8
-4.496,-8.19974E+07,18368.8
-4.4956,-8.19974E+07,18366.4
-4.4952,-8.19974E+07,18367.2
-4.4948,-8.19976E+07,18368.8
-4.4944,-8.19974E+07,18368
-4.494,-8.19974E+07,18368.8
-4.4936,-8.19976E+07,18368
-4.4932,-8.19976E+07,18366.4
-4.4928,-8.19976E+07,18368
-4.4924,-8.19976E+07,18368.8
-4.492,-8.19976E+07,18369.6
-4.4916,-8.19976E+07,18369.6
-4.4912,-8.19976E+07,18369.6
-4.4908,-8.19976E+07,18368.8
-4.4904,-8.19976E+07,18368
-4.49,-8.19976E+07,18368
-4.4896,-8.19976E+07,18368.8
-4.4892,-8.19976E+07,18369.6
-4.4888,-8.19978E+07,18370.4
-4.4884,-8.19978E+07,18369.6
-4.488,-8.19976E+07,18367.2
-4.4876,-8.19978E+07,18370.4
-4.4872,-8.19978E+07,18368
-4.4868,-8.19978E+07,18369.6
-4.4864,-8.19978E+07,18368.8
-4.486,-8.19978E+07,18370.4
-4.4856,-8.19978E+07,18369.6
-4.4852,-8.19978E+07,18368
-4.4848,-8.19978E+07,18368
-4.4844,-8.19978E+07,18364
-4.484,-8.19978E+07,18366.4
-4.4836,-8.19978E+07,18366.4
-4.4832,-8.1998E+07,18367.2
-4.4828,-8.19978E+07,18365.6
-4.4824,-8.19978E+07,18364.8
-4.482,-8.1998E+07,18366.4
-4.4816,-8.1998E+07,18365.6
-4.4812,-8.1998E+07,18364
-4.4808,-8.1998E+07,18364
-4.4804,-8.1998E+07,18365.6
-4.48,-8.1998E+07,18363.2
-4.4796,-8.1998E+07,18362.4
-4.4792,-8.1998E+07,18363.2
-4.4788,-8.1998E+07,18361.6
-4.4784,-8.1998E+07,18362.4
-4.478,-8.1998E+07,18360.8
-4.4776,-8.1998E+07,18361.6
-4.4772,-8.19982E+07,18360
-4.4768,-8.19982E+07,18360.8
-4.4764,-8.1998E+07,18361.6
-4.476,-8.19982E+07,18359.2
-4.4756,-8.1998E+07,18359.2
-4.4752,-8.19982E+07,18358.4
-4.4748,-8.19982E+07,18360.8
-4.4744,-8.19982E+07,18360.8
-4.474,-8.19982E+07,18360.8
-4.4736,-8.19982E+07,18362.4
-4.4732,-8.19982E+07,18361.6
-4.4728,-8.19982E+07,18363.2
-4.4724,-8.19982E+07,18364
-4.472,-8.19982E+07,18365.6
-4.4716,-8.19982E+07,18364
-4.4712,-8.19984E+07,18367.2
-4.4708,-8.19982E+07,18367.2
-4.4704,-8.19982E+07,18368
-4.47,-8.19982E+07,18369.6
-4.4696,-8.19984E+07,18372
-4.4692,-8.19982E+07,18371.2
-4.4688,-8.19984E+07,18371.2
-4.4684,-8.19984E+07,18372
-4.468,-8.19984E+07,18372
-4.4676,-8.19984E+07,18373.6
-4.4672,-8.19984E+07,18375.2
-4.4668,-8.19984E+07,18376
-4.4664,-8.19984E+07,18375.2
-4.466,-8.19984E+07,18376.8
-4.4656,-8.19984E+07,18377.6
-4.4652,-8.19984E+07,18377.6
-4.4648,-8.19984E+07,18378.4
-4.4644,-8.19984E+07,18378.4
-4.464,-8.19984E+07,18379.2
-4.4636,-8.19984E+07,18379.2
-4.4632,-8.19986E+07,18380
-4.4628,-8.19986E+07,18380
-4.4624,-8.19984E+07,18380.8
-4.462,-8.19984E+07,18381.6
-4.4616,-8.19984E+07,18381.6
-4.4612,-8.19986E+07,18381.6
-4.4608,-8.19986E+07,18383.2
-4.4604,-8.19986E+07,18383.2
-4.46,-8.19984E+07,18381.6
-4.4596,-8.19984E+07,18383.2
-4.4592,-8.19986E+07,18382.4
-4.4588,-8.19986E+07,18384
-4.4584,-8.19986E+07,18384
-4.458,-8.19986E+07,18384
-4.4576,-8.19986E+07,18384
-4.4572,-8.19986E+07,18384
-4.4568,-8.19986E+07,18384.8
-4.4564,-8.19986E+07,18385.6
-4.456,-8.19986E+07,18384.8
-4.4556,-8.19986E+07,18384.8
-4.4552,-8.19986E+07,18386.4
-4.4548,-8.19986E+07,18385.6
-4.4544,-8.19986E+07,18385.6
-4.454,-8.19986E+07,18386.4
-4.4536,-8.19986E+07,18386.4
-4.4532,-8.19986E+07,18385.6
-4.4528,-8.19986E+07,18386.4
-4.4524,-8.19986E+07,18387.2
-4.452,-8.19986E+07,18387.2
-4.4516,-8.19986E+07,18388
-4.4512,-8.19986E+07,18388
-4.4508,-8.19986E+07,18387.2
-4.4504,-8.19986E+07,18388.8
-4.45,-8.19986E+07,18388
-4.4496,-8.19986E+07,18388
-4.4492,-8.19986E+07,18388
-4.4488,-8.19986E+07,18388
-4.4484,-8.19986E+07,18388.8
-4.448,-8.19986E+07,18388.8
-4.4476,-8.19986E+07,18388
-4.4472,-8.19984E+07,18388
-4.4468,-8.19986E+07,18388.8
-4.4464,-8.19986E+07,18390.4
-4.446,-8.19986E+07,18390.4
-4.4456,-8.19986E+07,18389.6
-4.4452,-8.19984E+07,18388.8
-4.4448,-8.19986E+07,18390.4
-4.4444,-8.19986E+07,18391.2
-4.444,-8.19986E+07,18390.4
-4.4436,-8.19986E+07,18390.4
-4.4432,-8.19986E+07,18390.4
-4.4428,-8.19986E+07,18391.2
-4.4424,-8.19986E+07,18391.2
-4.442,-8.19986E+07,18390.4
-4.4416,-8.19986E+07,18392
-4.4412,-8.19986E+07,18391.2
-4.4408,-8.19986E+07,18391.2
-4.4404,-8.19986E+07,18391.2
-4.44,-8.19986E+07,18391.2
-4.4396,-8.19986E+07,18392
-4.4392,-8.19986E+07,18391.2
-4.4388,-8.19986E+07,18392.8
-4.4384,-8.19984E+07,18392.8
-4.438,-8.19986E+07,18392
-4.4376,-8.19986E+07,18392
-4.4372,-8.19986E+07,18391.2
-4.4368,-8.19986E+07,18392.8
-4.4364,-8.19984E+07,18392.8
-4.436,-8.19984E+07,18392
-4.4356,-8.19984E+07,18391.2
-4.4352,-8.19984E+07,18392.8
-4.4348,-8.19984E+07,18392.8
-4.4344,-8.19984E+07,18392
-4.434,-8.19984E+07,18393.6
-4.4336,-8.19984E+07,18393.6
-4.4332,-8.19984E+07,18392.8
-4.4328,-8.19984E+07,18393.6
-4.4324,-8.19984E+07,18393.6
-4.432,-8.19984E+07,18393.6
-4.4316,-8.19984E+07,18393.6
-4.4312,-8.19982E+07,18393.6
-4.4308,-8.19982E+07,18393.6
-4.4304,-8.19984E+07,18393.6
-4.43,-8.19982E+07,18395.2
-4.4296,-8.19984E+07,18393.6
-4.4292,-8.19982E+07,18393.6
-4.4288,-8.19982E+07,18394.4
-4.4284,-8.19982E+07,18395.2
-4.428,-8.19982E+07,18393.6
-4.4276,-8.19982E+07,18394.4
-4.4272,-8.19982E+07,18394.4
-4.4268,-8.19982E+07,18393.6
-4.4264,-8.19982E+07,18394.4
-4.426,-8.19982E+07,18393.6
-4.4256,-8.19982E+07,18393.6
-4.4252,-8.1998E+07,18394.4
-4.4248,-8.1998E+07,18392.8
-4.4244,-8.1998E+07,18394.4
-4.424,-8.1998E+07,18393.6
-4.4236,-8.1998E+07,18395.2
-4.4232,-8.1998E+07,18393.6
-4.4228,-8.1998E+07,18393.6
-4.4224,-8.1998E+07,18394.4
-4.422,-8.19978E+07,18394.4
-4.4216,-8.1998E+07,18394.4
-4.4212,-8.19978E+07,18394.4
-4.4208,-8.19978E+07,18394.4
-4.4204,-8.19978E+07,18394.4
-4.42,-8.19978E+07,18395.2
-4.4196,-8.19978E+07,18394.4
-4.4192,-8.19978E+07,18395.2
-4.4188,-8.19976E+07,18394.4
-4.4184,-8.19976E+07,18395.2
-4.418,-8.19976E+07,18394.4
-4.4176,-8.19976E+07,18394.4
-4.4172,-8.19974E+07,18395.2
-4.4168,-8.19974E+07,18395.2
-4.4164,-8.19974E+07,18394.4
-4.416,-8.19974E+07,18394.4
-4.4156,-8.19974E+07,18395.2
-4.4152,-8.19972E+07,18395.2
-4.4148,-8.19972E+07,18395.2
-4.4144,-8.19972E+07,18394.4
-4.414,-8.19972E+07,18396
-4.4136,-8.19972E+07,18396.8
-4.4132,-8.1997E+07,18395.2
-4.4128,-8.1997E+07,18395.2
-4.4124,-8.1997E+07,18394.4
-4.412,-8.1997E+07,18395.2
-4.4116,-8.19968E+07,18396
-4.4112,-8.19966E+07,18396
-4.4108,-8.19966E+07,18396
-4.4104,-8.19966E+07,18396
-4.41,-8.19964E+07,18396.8
-4.4096,-8.19964E+07,18396.8
-4.4092,-8.19962E+07,18396.8
-4.4088,-8.19962E+07,18395.2
-4.4084,-8.1996E+07,18396.8
-4.408,-8.1996E+07,18396.8
-4.4076,-8.19958E+07,18397.6
-4.4072,-8.19958E+07,18396
-4.4068,-8.19956E+07,18395.2
-4.4064,-8.19956E+07,18396
-4.406,-8.19956E+07,18396
-4.4056,-8.19956E+07,18396
-4.4052,-8.19956E+07,18395.2
-4.4048,-8.19956E+07,18397.6
-4.4044,-8.19956E+07,18396.8
-4.404,-8.19956E+07,18396.8
-4.4036,-8.19956E+07,18395.2
-4.4032,-8.19956E+07,18396
-4.4028,-8.19956E+07,18396
-4.4024,-8.19958E+07,18397.6
-4.402,-8.19958E+07,18397.6
-4.4016,-8.19958E+07,18396
-4.4012,-8.1996E+07,18395.2
-4.4008,-8.1996E+07,18395.2
-4.4004,-8.1996E+07,18394.4
-4.4,-8.19962E+07,18397.6
-4.3996,-8.19962E+07,18396
-4.3992,-8.19962E+07,18396
-4.3988,-8.19964E+07,18395.2
-4.3984,-8.19964E+07,18398.4
-4.398,-8.19964E+07,18396
-4.3976,-8.19964E+07,18396.8
-4.3972,-8.19964E+07,18396
-4.3968,-8.19964E+07,18396
-4.3964,-8.19964E+07,18395.2
-4.396,-8.19964E+07,18396.8
-4.3956,-8.19964E+07,18394.4
-4.3952,-8.19964E+07,18393.6
-4.3948,-8.19964E+07,18396
-4.3944,-8.19964E+07,18395.2
-4.394,-8.19962E+07,18396
-4.3936,-8.19962E+07,18395.2
-4.3932,-8.19962E+07,18396.8
-4.3928,-8.19962E+07,18396
-4.3924,-8.1996E+07,18395.2
-4.392,-8.1996E+07,18395.2
-4.3916,-8.1996E+07,18396
-4.3912,-8.1996E+07,18396
-4.3908,-8.19958E+07,18393.6
-4.3904,-8.19958E+07,18393.6
-4.39,-8.19958E+07,18394.4
-4.3896,-8.19956E+07,18396
-4.3892,-8.19956E+07,18395.2
-4.3888,-8.19954E+07,18393.6
-4.3884,-8.19954E+07,18393.6
-4.388,-8.19952E+07,18393.6
-4.3876,-8.1995E+07,18390.4
-4.3872,-8.1995E+07,18392
-4.3868,-8.19948E+07,18393.6
-4.3864,-8.19948E+07,18392
-4.386,-8.19946E+07,18392
-4.3856,-8.19944E+07,18393.6
-4.3852,-8.19944E+07,18390.4
-4.3848,-8.19942E+07,18389.6
-4.3844,-8.19942E+07,18391.2
-4.384,-8.1994E+07,18393.6
-4.3836,-8.19938E+07,18386.4
-4.3832,-8.19936E+07,18389.6
-4.3828,-8.19934E+07,18388.8
-4.3824,-8.19932E+07,18389.6
-4.382,-8.1993E+07,18388.8
-4.3816,-8.19928E+07,18388.8
-4.3812,-8.19926E+07,18388
-4.3808,-8.19924E+07,18390.4
-4.3804,-8.19922E+07,18385.6
-4.38,-8.1992E+07,18388
-4.3796,-8.19918E+07,18385.6
-4.3792,-8.19916E+07,18382.4
-4.3788,-8.19914E+07,18386.4
-4.3784,-8.19912E+07,18382.4
-4.378,-8.1991E+07,18381.6
-4.3776,-8.19908E+07,18384.8
-4.3772,-8.19908E+07,18381.6
-4.3768,-8.19904E+07,18383.2
-4.3764,-8.19904E+07,18380.8
-4.376,-8.19906E+07,18381.6
-4.3756,-8.19906E+07,18377.6
-4.3752,-8.19906E+07,18372.8
-4.3748,-8.19906E+07,18376
-4.3744,-8.19908E+07,18371.2
-4.374,-8.19908E+07,18376
-4.3736,-8.1991E+07,18372.8
-4.3732,-8.1991E+07,18368
-4.3728,-8.1991E+07,18368
-4.3724,-8.19912E+07,18369.6
-4.372,-8.19914E+07,18367.2
-4.3716,-8.19914E+07,18363.2
-4.3712,-8.19914E+07,18363.2
-4.3708,-8.19914E+07,18362.4
-4.3704,-8.19916E+07,18356
-4.37,-8.19914E+07,18358.4
-4.3696,-8.19916E+07,18358.4
-4.3692,-8.19916E+07,18356.8
-4.3688,-8.19916E+07,18353.6
-4.3684,-8.19916E+07,18352.8
-4.368,-8.19916E+07,18352.8
-4.3676,-8.19916E+07,18349.6
-4.3672,-8.19914E+07,18351.2
-4.3668,-8.19914E+07,18350.4
-4.3664,-8.19914E+07,18349.6
-4.366,-8.19912E+07,18347.2
-4.3656,-8.19912E+07,18350.4
-4.3652,-8.1991E+07,18348.8
-4.3648,-8.1991E+07,18348
-4.3644,-8.19908E+07,18350.4
-4.364,-8.19908E+07,18348.8
-4.3636,-8.19908E+07,18348.8
-4.3632,-8.19906E+07,18350.4
-4.3628,-8.19906E+07,18351.2
-4.3624,-8.19906E+07,18352.8
