EIT_100323/medida10_EIT_media4pts.CSV

Model,TBS 1062,
Firmware Version,CF:91.1CT FV:v26.02,
,,
Waveform Type,ANALOG,ANALOG
Point Format,Y,Y
Horizontal Units,"s","s"
Horizontal Scale,0.1,0.1
Horizontal Delay,0,0
Sample Interval,0.0004,0.0004
Record Length,2500,2500
Gating,0.0% to 100.0%,0.0% to 100.0%
Probe Attenuation,10X,10X
Vertical Units,"Volts","Volts"
Vertical Offset,0,0
Vertical Scale,5,0.2
Vertical Position,164,-9.2
,,
,,
,,
Label,,
TIME,CH1,CH2
-6.56,-8.19918E+07,18384.8
-6.5596,-8.19916E+07,18384.8
-6.5592,-8.19916E+07,18384
-6.5588,-8.19918E+07,18384
-6.5584,-8.19916E+07,18385.6
-6.558,-8.19918E+07,18384.8
-6.5576,-8.19918E+07,18384
-6.5572,-8.19918E+07,18383.2
-6.5568,-8.19918E+07,18384
-6.5564,-8.19918E+07,18384.8
-6.556,-8.19918E+07,18384
-6.5556,-8.19918E+07,18383.2
-6.5552,-8.19918E+07,18384
-6.5548,-8.19918E+07,18384
-6.5544,-8.19918E+07,18384
-6.554,-8.19918E+07,18383.2
-6.5536,-8.19918E+07,18384.8
-6.5532,-8.19918E+07,18384.8
-6.5528,-8.19918E+07,18381.6
-6.5524,-8.19918E+07,18382.4
-6.552,-8.19918E+07,18383.2
-6.5516,-8.19918E+07,18383.2
-6.5512,-8.19918E+07,18382.4
-6.5508,-8.19918E+07,18383.2
-6.5504,-8.19918E+07,18383.2
-6.55,-8.19918E+07,18381.6
-6.5496,-8.19918E+07,18381.6
-6.5492,-8.19918E+07,18383.2
-6.5488,-8.19918E+07,18382.4
-6.5484,-8.19918E+07,18382.4
-6.548,-8.1992E+07,18383.2
-6.5476,-8.19918E+07,18382.4
-6.5472,-8.1992E+07,18381.6
-6.5468,-8.19918E+07,18382.4
-6.5464,-8.1992E+07,18381.6
-6.546,-8.1992E+07,18381.6
-6.5456,-8.19918E+07,18381.6
-6.5452,-8.1992E+07,18380
-6.5448,-8.19918E+07,18381.6
-6.5444,-8.1992E+07,18382.4
-6.544,-8.1992E+07,18380.8
-6.5436,-8.1992E+07,18381.6
-6.5432,-8.1992E+07,18381.6
-6.5428,-8.1992E+07,18380.8
-6.5424,-8.1992E+07,18380.8
-6.542,-8.1992E+07,18380.8
-6.5416,-8.1992E+07,18381.6
-6.5412,-8.1992E+07,18382.4
-6.5408,-8.1992E+07,18380.8
-6.5404,-8.1992E+07,18380.8
-6.54,-8.1992E+07,18380.8
-6.5396,-8.1992E+07,18379.2
-6.5392,-8.1992E+07,18381.6
-6.5388,-8.1992E+07,18379.2
-6.5384,-8.1992E+07,18380.8
-6.538,-8.19922E+07,18380
-6.5376,-8.19922E+07,18379.2
-6.5372,-8.19922E+07,18379.2
-6.5368,-8.1992E+07,18380.8
-6.5364,-8.1992E+07,18380
-6.536,-8.19922E+07,18379.2
-6.5356,-8.19922E+07,18378.4
-6.5352,-8.19922E+07,18380
-6.5348,-8.19922E+07,18379.2
-6.5344,-8.19922E+07,18378.4
-6.534,-8.19922E+07,18378.4
-6.5336,-8.19922E+07,18378.4
-6.5332,-8.19922E+07,18378.4
-6.5328,-8.19922E+07,18376.8
-6.5324,-8.19922E+07,18377.6
-6.532,-8.19922E+07,18379.2
-6.5316,-8.19922E+07,18377.6
-6.5312,-8.19922E+07,18377.6
-6.5308,-8.19922E+07,18378.4
-6.5304,-8.19922E+07,18379.2
-6.53,-8.19922E+07,18377.6
-6.5296,-8.19922E+07,18377.6
-6.5292,-8.19922E+07,18377.6
-6.5288,-8.19922E+07,18376.8
-6.5284,-8.19922E+07,18376.8
-6.528,-8.19924E+07,18377.6
-6.5276,-8.19924E+07,18376.8
-6.5272,-8.19924E+07,18378.4
-6.5268,-8.19922E+07,18376.8
-6.5264,-8.19922E+07,18377.6
-6.526,-8.19924E+07,18377.6
-6.5256,-8.19924E+07,18376
-6.5252,-8.19924E+07,18377.6
-6.5248,-8.19924E+07,18376
-6.5244,-8.19924E+07,18376.8
-6.524,-8.19924E+07,18375.2
-6.5236,-8.19924E+07,18375.2
-6.5232,-8.19924E+07,18376.8
-6.5228,-8.19924E+07,18375.2
-6.5224,-8.19924E+07,18375.2
-6.522,-8.19924E+07,18375.2
-6.5216,-8.19924E+07,18375.2
-6.5212,-8.19924E+07,18376
-6.5208,-8.19924E+07,18376.8
-6.5204,-8.19924E+07,18376
-6.52,-8.19924E+07,18375.2
-6.5196,-8.19926E+07,18374.4
-6.5192,-8.19926E+07,18376
-6.5188,-8.19924E+07,18374.4
-6.5184,-8.19926E+07,18375.2
-6.518,-8.19926E+07,18374.4
-6.5176,-8.19926E+07,18375.2
-6.5172,-8.19926E+07,18375.2
-6.5168,-8.19926E+07,18375.2
-6.5164,-8.19926E+07,18374.4
-6.516,-8.19926E+07,18375.2
-6.5156,-8.19926E+07,18375.2
-6.5152,-8.19926E+07,18374.4
-6.5148,-8.19926E+07,18374.4
-6.5144,-8.19926E+07,18374.4
-6.514,-8.19926E+07,18374.4
-6.5136,-8.19926E+07,18372.8
-6.5132,-8.19926E+07,18375.2
-6.5128,-8.19926E+07,18372.8
-6.5124,-8.19926E+07,18372
-6.512,-8.19926E+07,18372.8
-6.5116,-8.19926E+07,18373.6
-6.5112,-8.19928E+07,18372.8
-6.5108,-8.19926E+07,18372
-6.5104,-8.19928E+07,18374.4
-6.51,-8.19928E+07,18373.6
-6.5096,-8.19928E+07,18373.6
-6.5092,-8.19928E+07,18373.6
-6.5088,-8.19928E+07,18372
-6.5084,-8.19928E+07,18372
-6.508,-8.19928E+07,18372
-6.5076,-8.19928E+07,18372.8
-6.5072,-8.19928E+07,18372.8
-6.5068,-8.19928E+07,18371.2
-6.5064,-8.19928E+07,18371.2
-6.506,-8.1993E+07,18372.8
-6.5056,-8.19928E+07,18372.8
-6.5052,-8.1993E+07,18372.8
-6.5048,-8.1993E+07,18372.8
-6.5044,-8.19928E+07,18372
-6.504,-8.1993E+07,18372
-6.5036,-8.1993E+07,18369.6
-6.5032,-8.1993E+07,18367.2
-6.5028,-8.1993E+07,18370.4
-6.5024,-8.1993E+07,18369.6
-6.502,-8.1993E+07,18371.2
-6.5016,-8.1993E+07,18370.4
-6.5012,-8.1993E+07,18370.4
-6.5008,-8.1993E+07,18370.4
-6.5004,-8.1993E+07,18370.4
-6.5,-8.1993E+07,18370.4
-6.4996,-8.19932E+07,18369.6
-6.4992,-8.1993E+07,18368
-6.4988,-8.1993E+07,18368.8
-6.4984,-8.1993E+07,18370.4
-6.498,-8.19932E+07,18369.6
-6.4976,-8.19932E+07,18368
-6.4972,-8.19932E+07,18368
-6.4968,-8.19932E+07,18368
-6.4964,-8.19932E+07,18365.6
-6.496,-8.19934E+07,18368.8
-6.4956,-8.19932E+07,18369.6
-6.4952,-8.19932E+07,18367.2
-6.4948,-8.19932E+07,18367.2
-6.4944,-8.19934E+07,18368.8
-6.494,-8.19932E+07,18368
-6.4936,-8.19932E+07,18365.6
-6.4932,-8.19932E+07,18365.6
-6.4928,-8.19934E+07,18366.4
-6.4924,-8.19934E+07,18367.2
-6.492,-8.19934E+07,18366.4
-6.4916,-8.19934E+07,18365.6
-6.4912,-8.19934E+07,18365.6
-6.4908,-8.19934E+07,18363.2
-6.4904,-8.19934E+07,18365.6
-6.49,-8.19934E+07,18364
-6.4896,-8.19934E+07,18363.2
-6.4892,-8.19934E+07,18363.2
-6.4888,-8.19934E+07,18362.4
-6.4884,-8.19936E+07,18361.6
-6.488,-8.19934E+07,18361.6
-6.4876,-8.19934E+07,18360.8
-6.4872,-8.19936E+07,18360.8
-6.4868,-8.19936E+07,18360
-6.4864,-8.19936E+07,18362.4
-6.486,-8.19936E+07,18360
-6.4856,-8.19936E+07,18361.6
-6.4852,-8.19936E+07,18360.8
-6.4848,-8.19936E+07,18360
-6.4844,-8.19936E+07,18360
-6.484,-8.19936E+07,18357.6
-6.4836,-8.19936E+07,18357.6
-6.4832,-8.19936E+07,18357.6
-6.4828,-8.19936E+07,18359.2
-6.4824,-8.19938E+07,18357.6
-6.482,-8.19938E+07,18357.6
-6.4816,-8.19938E+07,18356
-6.4812,-8.19938E+07,18356
-6.4808,-8.19938E+07,18356
-6.4804,-8.19938E+07,18356.8
-6.48,-8.19938E+07,18355.2
-6.4796,-8.19938E+07,18355.2
-6.4792,-8.19938E+07,18356.8
-6.4788,-8.19938E+07,18356
-6.4784,-8.19938E+07,18356.8
-6.478,-8.1994E+07,18356.8
-6.4776,-8.1994E+07,18356.8
-6.4772,-8.1994E+07,18356
-6.4768,-8.1994E+07,18356
-6.4764,-8.1994E+07,18358.4
-6.476,-8.1994E+07,18356.8
-6.4756,-8.1994E+07,18357.6
-6.4752,-8.1994E+07,18359.2
-6.4748,-8.1994E+07,18359.2
-6.4744,-8.1994E+07,18358.4
-6.474,-8.1994E+07,18359.2
-6.4736,-8.19942E+07,18360
-6.4732,-8.19942E+07,18357.6
-6.4728,-8.1994E+07,18359.2
-6.4724,-8.19942E+07,18359.2
-6.472,-8.19942E+07,18357.6
-6.4716,-8.19942E+07,18359.2
-6.4712,-8.19942E+07,18360.8
-6.4708,-8.19942E+07,18360
-6.4704,-8.19942E+07,18361.6
-6.47,-8.19942E+07,18360.8
-6.4696,-8.19942E+07,18360
-6.4692,-8.19944E+07,18360.8
-6.4688,-8.19944E+07,18362.4
-6.4684,-8.19944E+07,18360
-6.468,-8.19944E+07,18362.4
-6.4676,-8.19944E+07,18361.6
-6.4672,-8.19944E+07,18362.4
-6.4668,-8.19944E+07,18361.6
-6.4664,-8.19944E+07,18361.6
-6.466,-8.19944E+07,18363.2
-6.4656,-8.19944E+07,18363.2
-6.4652,-8.19946E+07,18363.2
-6.4648,-8.19946E+07,18363.2
-6.4644,-8.19944E+07,18363.2
-6.464,-8.19946E+07,18361.6
-6.4636,-8.19946E+07,18364
-6.4632,-8.19946E+07,18362.4
-6.4628,-8.19946E+07,18361.6
-6.4624,-8.19946E+07,18363.2
-6.462,-8.19946E+07,18363.2
-6.4616,-8.19948E+07,18363.2
-6.4612,-8.19946E+07,18363.2
-6.4608,-8.19948E+07,18364.8
-6.4604,-8.19948E+07,18363.2
-6.46,-8.19948E+07,18364
-6.4596,-8.19948E+07,18365.6
-6.4592,-8.19948E+07,18364
-6.4588,-8.19948E+07,18366.4
-6.4584,-8.19948E+07,18364.8
-6.458,-8.19948E+07,18364.8
-6.4576,-8.1995E+07,18364.8
-6.4572,-8.1995E+07,18365.6
-6.4568,-8.1995E+07,18364
-6.4564,-8.1995E+07,18364
-6.456,-8.1995E+07,18364
-6.4556,-8.1995E+07,18364.8
-6.4552,-8.1995E+07,18365.6
-6.4548,-8.1995E+07,18365.6
-6.4544,-8.1995E+07,18365.6
-6.454,-8.1995E+07,18366.4
-6.4536,-8.1995E+07,18365.6
-6.4532,-8.1995E+07,18365.6
-6.4528,-8.19952E+07,18365.6
-6.4524,-8.19952E+07,18365.6
-6.452,-8.19952E+07,18364
-6.4516,-8.19952E+07,18365.6
-6.4512,-8.19952E+07,18365.6
-6.4508,-8.19954E+07,18364.8
-6.4504,-8.19954E+07,18364.8
-6.45,-8.19954E+07,18364.8
-6.4496,-8.19954E+07,18367.2
-6.4492,-8.19954E+07,18365.6
-6.4488,-8.19954E+07,18365.6
-6.4484,-8.19954E+07,18366.4
-6.448,-8.19954E+07,18368
-6.4476,-8.19954E+07,18365.6
-6.4472,-8.19954E+07,18367.2
-6.4468,-8.19954E+07,18367.2
-6.4464,-8.19956E+07,18366.4
-6.446,-8.19956E+07,18366.4
-6.4456,-8.19956E+07,18366.4
-6.4452,-8.19956E+07,18365.6
-6.4448,-8.19956E+07,18367.2
-6.4444,-8.19956E+07,18368
-6.444,-8.19956E+07,18366.4
-6.4436,-8.19956E+07,18365.6
-6.4432,-8.19956E+07,18366.4
-6.4428,-8.19956E+07,18367.2
-6.4424,-8.19956E+07,18367.2
-6.442,-8.19956E+07,18367.2
-6.4416,-8.19958E+07,18368
-6.4412,-8.19958E+07,18368
-6.4408,-8.19958E+07,18367.2
-6.4404,-8.19958E+07,18368
-6.44,-8.19958E+07,18368
-6.4396,-8.19958E+07,18368
-6.4392,-8.19958E+07,18368.8
-6.4388,-8.19958E+07,18368
-6.4384,-8.19958E+07,18366.4
-6.438,-8.1996E+07,18368
-6.4376,-8.1996E+07,18368
-6.4372,-8.1996E+07,18369.6
-6.4368,-8.1996E+07,18367.2
-6.4364,-8.1996E+07,18367.2
-6.436,-8.1996E+07,18368.8
-6.4356,-8.1996E+07,18367.2
-6.4352,-8.1996E+07,18368.8
-6.4348,-8.1996E+07,18368
-6.4344,-8.19962E+07,18368
-6.434,-8.1996E+07,18368.8
-6.4336,-8.1996E+07,18368
-6.4332,-8.19962E+07,18368.8
-6.4328,-8.19962E+07,18368
-6.4324,-8.19962E+07,18368.8
-6.432,-8.19962E+07,18368
-6.4316,-8.19962E+07,18369.6
-6.4312,-8.19962E+07,18369.6
-6.4308,-8.19962E+07,18368.8
-6.4304,-8.19964E+07,18371.2
-6.43,-8.19964E+07,18369.6
-6.4296,-8.19964E+07,18371.2
-6.4292,-8.19964E+07,18368.8
-6.4288,-8.19964E+07,18370.4
-6.4284,-8.19964E+07,18370.4
-6.428,-8.19964E+07,18369.6
-6.4276,-8.19964E+07,18369.6
-6.4272,-8.19966E+07,18368.8
-6.4268,-8.19964E+07,18370.4
-6.4264,-8.19964E+07,18371.2
-6.426,-8.19966E+07,18370.4
-6.4256,-8.19966E+07,18370.4
-6.4252,-8.19966E+07,18371.2
-6.4248,-8.19966E+07,18370.4
-6.4244,-8.19966E+07,18370.4
-6.424,-8.19966E+07,18371.2
-6.4236,-8.19968E+07,18372
-6.4232,-8.19966E+07,18369.6
-6.4228,-8.19968E+07,18370.4
-6.4224,-8.19968E+07,18369.6
-6.422,-8.19968E+07,18371.2
-6.4216,-8.19968E+07,18371.2
-6.4212,-8.19968E+07,18372
-6.4208,-8.19968E+07,18372
-6.4204,-8.19968E+07,18371.2
-6.42,-8.1997E+07,18372.8
-6.4196,-8.1997E+07,18372
-6.4192,-8.1997E+07,18372
-6.4188,-8.1997E+07,18372.8
-6.4184,-8.1997E+07,18372
-6.418,-8.1997E+07,18372
-6.4176,-8.1997E+07,18372
-6.4172,-8.1997E+07,18372.8
-6.4168,-8.1997E+07,18372.8
-6.4164,-8.1997E+07,18374.4
-6.416,-8.1997E+07,18375.2
-6.4156,-8.19972E+07,18373.6
-6.4152,-8.19972E+07,18372.8
-6.4148,-8.19972E+07,18374.4
-6.4144,-8.19972E+07,18372.8
-6.414,-8.19972E+07,18372.8
-6.4136,-8.19972E+07,18375.2
-6.4132,-8.19972E+07,18374.4
-6.4128,-8.19972E+07,18373.6
-6.4124,-8.19972E+07,18374.4
-6.412,-8.19972E+07,18373.6
-6.4116,-8.19974E+07,18376
-6.4112,-8.19974E+07,18375.2
-6.4108,-8.19974E+07,18375.2
-6.4104,-8.19974E+07,18374.4
-6.41,-8.19974E+07,18376
-6.4096,-8.19974E+07,18375.2
-6.4092,-8.19974E+07,18374.4
-6.4088,-8.19974E+07,18375.2
-6.4084,-8.19974E+07,18376.8
-6.408,-8.19974E+07,18375.2
-6.4076,-8.19974E+07,18374.4
-6.4072,-8.19976E+07,18376
-6.4068,-8.19974E+07,18376
-6.4064,-8.19976E+07,18376.8
-6.406,-8.19974E+07,18374.4
-6.4056,-8.19976E+07,18375.2
-6.4052,-8.19976E+07,18377.6
-6.4048,-8.19976E+07,18376
-6.4044,-8.19976E+07,18376.8
-6.404,-8.19976E+07,18376.8
-6.4036,-8.19976E+07,18377.6
-6.4032,-8.19976E+07,18376.8
-6.4028,-8.19976E+07,18375.2
-6.4024,-8.19976E+07,18377.6
-6.402,-8.19976E+07,18376
-6.4016,-8.19976E+07,18377.6
-6.4012,-8.19976E+07,18376
-6.4008,-8.19978E+07,18376.8
-6.4004,-8.19976E+07,18377.6
-6.4,-8.19978E+07,18377.6
-6.3996,-8.19978E+07,18378.4
-6.3992,-8.19978E+07,18377.6
-6.3988,-8.19978E+07,18378.4
-6.3984,-8.19978E+07,18379.2
-6.398,-8.19978E+07,18379.2
-6.3976,-8.19978E+07,18377.6
-6.3972,-8.1998E+07,18378.4
-6.3968,-8.19978E+07,18378.4
-6.3964,-8.19978E+07,18379.2
-6.396,-8.1998E+07,18379.2
-6.3956,-8.1998E+07,18377.6
-6.3952,-8.19978E+07,18378.4
-6.3948,-8.19978E+07,18379.2
-6.3944,-8.19978E+07,18379.2
-6.394,-8.1998E+07,18377.6
-6.3936,-8.1998E+07,18379.2
-6.3932,-8.1998E+07,18377.6
-6.3928,-8.1998E+07,18378.4
-6.3924,-8.1998E+07,18380.8
-6.392,-8.1998E+07,18379.2
-6.3916,-8.1998E+07,18378.4
-6.3912,-8.1998E+07,18380
-6.3908,-8.19982E+07,18380
-6.3904,-8.19982E+07,18379.2
-6.39,-8.1998E+07,18379.2
-6.3896,-8.19982E+07,18379.2
-6.3892,-8.19982E+07,18379.2
-6.3888,-8.19982E+07,18380.8
-6.3884,-8.19982E+07,18380
-6.388,-8.19982E+07,18380.8
-6.3876,-8.19982E+07,18380.8
-6.3872,-8.19982E+07,18381.6
-6.3868,-8.19982E+07,18380
-6.3864,-8.19982E+07,18381.6
-6.386,-8.19982E+07,18380.8
-6.3856,-8.19982E+07,18379.2
-6.3852,-8.19982E+07,18381.6
-6.3848,-8.19982E+07,18380.8
-6.3844,-8.19982E+07,18382.4
-6.384,-8.19984E+07,18380.8
-6.3836,-8.19982E+07,18381.6
-6.3832,-8.19984E+07,18383.2
-6.3828,-8.19984E+07,18381.6
-6.3824,-8.19984E+07,18381.6
-6.382,-8.19984E+07,18381.6
-6.3816,-8.19984E+07,18382.4
-6.3812,-8.19984E+07,18380
-6.3808,-8.19984E+07,18381.6
-6.3804,-8.19984E+07,18381.6
-6.38,-8.19984E+07,18381.6
-6.3796,-8.19984E+07,18380
-6.3792,-8.19984E+07,18382.4
-6.3788,-8.19984E+07,18383.2
-6.3784,-8.19984E+07,18381.6
-6.378,-8.19984E+07,18380.8
-6.3776,-8.19984E+07,18380.8
-6.3772,-8.19986E+07,18381.6
-6.3768,-8.19984E+07,18381.6
-6.3764,-8.19986E+07,18381.6
-6.376,-8.19986E+07,18380.8
-6.3756,-8.19986E+07,18382.4
-6.3752,-8.19984E+07,18382.4
-6.3748,-8.19986E+07,18380
-6.3744,-8.19986E+07,18379.2
-6.374,-8.19986E+07,18381.6
-6.3736,-8.19986E+07,18381.6
-6.3732,-8.19986E+07,18380.8
-6.3728,-8.19986E+07,18380.8
-6.3724,-8.19986E+07,18380.8
-6.372,-8.19986E+07,18380.8
-6.3716,-8.19986E+07,18377.6
-6.3712,-8.19986E+07,18378.4
-6.3708,-8.19986E+07,18379.2
-6.3704,-8.19986E+07,18380.8
-6.37,-8.19986E+07,18380.8
-6.3696,-8.19986E+07,18379.2
-6.3692,-8.19986E+07,18379.2
-6.3688,-8.19986E+07,18378.4
-6.3684,-8.19988E+07,18379.2
-6.368,-8.19986E+07,18380
-6.3676,-8.19988E+07,18378.4
-6.3672,-8.19986E+07,18379.2
-6.3668,-8.19986E+07,18379.2
-6.3664,-8.19986E+07,18377.6
-6.366,-8.19986E+07,18377.6
-6.3656,-8.19986E+07,18378.4
-6.3652,-8.19986E+07,18377.6
-6.3648,-8.19988E+07,18376
-6.3644,-8.19986E+07,18376.8
-6.364,-8.19986E+07,18376
-6.3636,-8.19988E+07,18376.8
-6.3632,-8.19988E+07,18378.4
-6.3628,-8.19986E+07,18376
-6.3624,-8.19988E+07,18375.2
-6.362,-8.19988E+07,18375.2
-6.3616,-8.19988E+07,18375.2
-6.3612,-8.19988E+07,18375.2
-6.3608,-8.19988E+07,18373.6
-6.3604,-8.19988E+07,18376
-6.36,-8.19986E+07,18374.4
-6.3596,-8.19988E+07,18375.2
-6.3592,-8.19986E+07,18374.4
-6.3588,-8.19988E+07,18375.2
-6.3584,-8.19986E+07,18374.4
-6.358,-8.19988E+07,18376
-6.3576,-8.19988E+07,18375.2
-6.3572,-8.19986E+07,18373.6
-6.3568,-8.19986E+07,18376.8
-6.3564,-8.19988E+07,18376
-6.356,-8.19988E+07,18376
-6.3556,-8.19988E+07,18376.8
-6.3552,-8.19988E+07,18377.6
-6.3548,-8.19988E+07,18378.4
-6.3544,-8.19988E+07,18376.8
-6.354,-8.19988E+07,18377.6
-6.3536,-8.19988E+07,18379.2
-6.3532,-8.19986E+07,18377.6
-6.3528,-8.19986E+07,18378.4
-6.3524,-8.19988E+07,18380
-6.352,-8.19988E+07,18380.8
-6.3516,-8.19986E+07,18380
-6.3512,-8.19988E+07,18380
-6.3508,-8.19988E+07,18380.8
-6.3504,-8.19988E+07,18381.6
-6.35,-8.19988E+07,18381.6
-6.3496,-8.19988E+07,18382.4
-6.3492,-8.19988E+07,18382.4
-6.3488,-8.19988E+07,18384
-6.3484,-8.19988E+07,18383.2
-6.348,-8.19988E+07,18384.8
-6.3476,-8.19988E+07,18384
-6.3472,-8.19988E+07,18384.8
-6.3468,-8.19988E+07,18384.8
-6.3464,-8.19988E+07,18383.2
-6.346,-8.19986E+07,18383.2
-6.3456,-8.19986E+07,18384.8
-6.3452,-8.19988E+07,18384.8
-6.3448,-8.19986E+07,18384.8
-6.3444,-8.19986E+07,18385.6
-6.344,-8.19986E+07,18385.6
-6.3436,-8.19986E+07,18385.6
-6.3432,-8.19986E+07,18387.2
-6.3428,-8.19986E+07,18385.6
-6.3424,-8.19986E+07,18386.4
-6.342,-8.19986E+07,18384.8
-6.3416,-8.19986E+07,18384.8
-6.3412,-8.19986E+07,18385.6
-6.3408,-8.19986E+07,18384.8
-6.3404,-8.19986E+07,18384.8
-6.34,-8.19986E+07,18383.2
-6.3396,-8.19986E+07,18385.6
-6.3392,-8.19986E+07,18383.2
-6.3388,-8.19984E+07,18384.8
-6.3384,-8.19986E+07,18384
-6.338,-8.19986E+07,18382.4
-6.3376,-8.19984E+07,18381.6
-6.3372,-8.19984E+07,18384
-6.3368,-8.19984E+07,18382.4
-6.3364,-8.19984E+07,18381.6
-6.336,-8.19984E+07,18380.8
-6.3356,-8.19984E+07,18380.8
-6.3352,-8.19984E+07,18381.6
-6.3348,-8.19984E+07,18380.8
-6.3344,-8.19984E+07,18382.4
-6.334,-8.19984E+07,18379.2
-6.3336,-8.19982E+07,18379.2
-6.3332,-8.19984E+07,18377.6
-6.3328,-8.19982E+07,18376.8
-6.3324,-8.19982E+07,18376
-6.332,-8.19982E+07,18377.6
-6.3316,-8.19982E+07,18377.6
-6.3312,-8.19982E+07,18376
-6.3308,-8.19982E+07,18376
-6.3304,-8.19982E+07,18376
-6.33,-8.19982E+07,18377.6
-6.3296,-8.19982E+07,18376.8
-6.3292,-8.19982E+07,18376.8
-6.3288,-8.19982E+07,18378.4
-6.3284,-8.1998E+07,18377.6
-6.328,-8.1998E+07,18379.2
-6.3276,-8.1998E+07,18380
-6.3272,-8.1998E+07,18378.4
-6.3268,-8.1998E+07,18379.2
-6.3264,-8.1998E+07,18379.2
-6.326,-8.19978E+07,18380
-6.3256,-8.19978E+07,18382.4
-6.3252,-8.19978E+07,18382.4
-6.3248,-8.19978E+07,18384
-6.3244,-8.19978E+07,18384
-6.324,-8.19978E+07,18384.8
-6.3236,-8.19978E+07,18385.6
-6.3232,-8.19976E+07,18384.8
-6.3228,-8.19976E+07,18386.4
-6.3224,-8.19976E+07,18386.4
-6.322,-8.19976E+07,18384
-6.3216,-8.19976E+07,18388.8
-6.3212,-8.19974E+07,18386.4
-6.3208,-8.19974E+07,18387.2
-6.3204,-8.19974E+07,18387.2
-6.32,-8.19974E+07,18388.8
-6.3196,-8.19972E+07,18388
-6.3192,-8.19972E+07,18388.8
-6.3188,-8.19972E+07,18388.8
-6.3184,-8.1997E+07,18391.2
-6.318,-8.1997E+07,18389.6
-6.3176,-8.1997E+07,18389.6
-6.3172,-8.1997E+07,18391.2
-6.3168,-8.19968E+07,18390.4
-6.3164,-8.19968E+07,18391.2
-6.316,-8.19966E+07,18391.2
-6.3156,-8.19966E+07,18392.8
-6.3152,-8.19964E+07,18392
-6.3148,-8.19964E+07,18392
-6.3144,-8.19962E+07,18392
-6.314,-8.1996E+07,18393.6
-6.3136,-8.1996E+07,18392
-6.3132,-8.1996E+07,18393.6
-6.3128,-8.19958E+07,18392.8
-6.3124,-8.19958E+07,18393.6
-6.312,-8.19956E+07,18394.4
-6.3116,-8.19956E+07,18393.6
-6.3112,-8.19956E+07,18393.6
-6.3108,-8.19956E+07,18393.6
-6.3104,-8.19956E+07,18393.6
-6.31,-8.19956E+07,18395.2
-6.3096,-8.19956E+07,18395.2
-6.3092,-8.19958E+07,18395.2
-6.3088,-8.19958E+07,18394.4
-6.3084,-8.19958E+07,18396
-6.308,-8.1996E+07,18394.4
-6.3076,-8.1996E+07,18395.2
-6.3072,-8.1996E+07,18395.2
-6.3068,-8.19962E+07,18395.2
-6.3064,-8.19962E+07,18396
-6.306,-8.19962E+07,18395.2
-6.3056,-8.19962E+07,18394.4
-6.3052,-8.19964E+07,18396
-6.3048,-8.19964E+07,18395.2
-6.3044,-8.19964E+07,18396
-6.304,-8.19964E+07,18396
-6.3036,-8.19964E+07,18395.2
-6.3032,-8.19966E+07,18396
-6.3028,-8.19966E+07,18395.2
-6.3024,-8.19964E+07,18397.6
-6.302,-8.19966E+07,18395.2
-6.3016,-8.19964E+07,18396.8
-6.3012,-8.19964E+07,18396.8
-6.3008,-8.19964E+07,18397.6
-6.3004,-8.19964E+07,18396.8
-6.3,-8.19964E+07,18397.6
-6.2996,-8.19962E+07,18396
-6.2992,-8.19964E+07,18396.8
-6.2988,-8.19962E+07,18395.2
-6.2984,-8.19962E+07,18397.6
-6.298,-8.19962E+07,18396.8
-6.2976,-8.1996E+07,18396
-6.2972,-8.1996E+07,18396
-6.2968,-8.1996E+07,18396.8
-6.2964,-8.19958E+07,18396.8
-6.296,-8.19958E+07,18396.8
-6.2956,-8.19956E+07,18397.6
-6.2952,-8.19956E+07,18397.6
-6.2948,-8.19954E+07,18398.4
-6.2944,-8.19954E+07,18395.2
-6.294,-8.19954E+07,18396.8
-6.2936,-8.19952E+07,18396
-6.2932,-8.1995E+07,18396.8
-6.2928,-8.1995E+07,18396.8
-6.2924,-8.19948E+07,18396
-6.292,-8.19948E+07,18399.2
-6.2916,-8.19946E+07,18396
-6.2912,-8.19944E+07,18395.2
-6.2908,-8.19942E+07,18397.6
-6.2904,-8.19942E+07,18396.8
-6.29,-8.1994E+07,18395.2
-6.2896,-8.19938E+07,18397.6
-6.2892,-8.19936E+07,18396
-6.2888,-8.19934E+07,18396
-6.2884,-8.19934E+07,18396
-6.288,-8.1993E+07,18397.6
-6.2876,-8.1993E+07,18396
-6.2872,-8.19928E+07,18396.8
-6.2868,-8.19924E+07,18398.4
-6.2864,-8.19924E+07,18397.6
-6.286,-8.1992E+07,18396
-6.2856,-8.19918E+07,18396.8
-6.2852,-8.19916E+07,18395.2
-6.2848,-8.19914E+07,18396.8
-6.2844,-8.19912E+07,18396
-6.284,-8.1991E+07,18396
-6.2836,-8.19908E+07,18397.6
-6.2832,-8.19908E+07,18395.2
-6.2828,-8.19908E+07,18395.2
