EIT_090323/medida8_EIA_m4pts.csv

Model,TBS 1062
Firmware Version,CF:91.1CT FV:v26.02
,
Waveform Type,ANALOG
Point Format,Y
Horizontal Units,"s"
Horizontal Scale,0.025
Horizontal Delay,0
Sample Interval,0.0001
Record Length,2500
Gating,0.0% to 100.0%
Probe Attenuation,10X
Vertical Units,"Volts"
Vertical Offset,0
Vertical Scale,0.02
Vertical Position,-384
,
,
,
Label,
TIME,CH2
-0.098,76802.8
-0.0979,76802.96
-0.0978,76803.04
-0.0977,76802.8
-0.0976,76802.8
-0.0975,76802.88
-0.0974,76802.96
-0.0973,76803.12
-0.0972,76803.12
-0.0971,76803.12
-0.097,76802.96
-0.0969,76802.8
-0.0968,76803.2
-0.0967,76802.96
-0.0966,76803.12
-0.0965,76802.96
-0.0964,76802.96
-0.0963,76803.52
-0.0962,76803.04
-0.0961,76802.96
-0.096,76802.55
-0.0959,76802.96
-0.0958,76803.12
-0.0957,76803.12
-0.0956,76803.2
-0.0955,76802.96
-0.0954,76803.12
-0.0953,76803.2
-0.0952,76803.28
-0.0951,76803.12
-0.095,76803.36
-0.0949,76803.12
-0.0948,76802.8
-0.0947,76802.88
-0.0946,76802.88
-0.0945,76803.2
-0.0944,76803.12
-0.0943,76802.88
-0.0942,76803.28
-0.0941,76803.2
-0.094,76803.36
-0.0939,76803.36
-0.0938,76803.04
-0.0937,76803.04
-0.0936,76802.48
-0.0935,76802.96
-0.0934,76802.72
-0.0933,76802.72
-0.0932,76802.88
-0.0931,76803.04
-0.093,76803.28
-0.0929,76802.96
-0.0928,76803.12
-0.0927,76802.8
-0.0926,76803.28
-0.0925,76803.04
-0.0924,76803.36
-0.0923,76803.44
-0.0922,76803.44
-0.0921,76802.96
-0.092,76803.2
-0.0919,76803.44
-0.0918,76803.28
-0.0917,76803.44
-0.0916,76803.12
-0.0915,76803.12
-0.0914,76803.12
-0.0913,76803.12
-0.0912,76803.2
-0.0911,76803.12
-0.091,76802.88
-0.0909,76803.2
-0.0908,76802.96
-0.0907,76803.28
-0.0906,76803.2
-0.0905,76803.28
-0.0904,76803.36
-0.0903,76803.2
-0.0902,76803.12
-0.0901,76803.52
-0.09,76803.36
-0.0899,76803.36
-0.0898,76803.12
-0.0897,76803.12
-0.0896,76803.52
-0.0895,76803.36
-0.0894,76802.96
-0.0893,76803.28
-0.0892,76803.28
-0.0891,76803.12
-0.089,76803.28
-0.0889,76803.2
-0.0888,76803.44
-0.0887,76803.2
-0.0886,76803.28
-0.0885,76803.28
-0.0884,76803.36
-0.0883,76802.96
-0.0882,76803.52
-0.0881,76803.52
-0.088,76803.52
-0.0879,76803.2
-0.0878,76803.44
-0.0877,76803.28
-0.0876,76803.12
-0.0875,76803.28
-0.0874,76803.28
-0.0873,76803.6
-0.0872,76803.2
-0.0871,76803.2
-0.087,76803.44
-0.0869,76803.44
-0.0868,76803.44
-0.0867,76803.52
-0.0866,76803.2
-0.0865,76803.12
-0.0864,76803.28
-0.0863,76803.44
-0.0862,76803.2
-0.0861,76803.28
-0.086,76803.28
-0.0859,76803.28
-0.0858,76803.68
-0.0857,76803.52
-0.0856,76803.2
-0.0855,76803.28
-0.0854,76803.36
-0.0853,76803.52
-0.0852,76803.36
-0.0851,76803.12
-0.085,76803.52
-0.0849,76803.6
-0.0848,76803.36
-0.0847,76803.44
-0.0846,76803.68
-0.0845,76803.68
-0.0844,76803.2
-0.0843,76803.28
-0.0842,76803.52
-0.0841,76803.04
-0.084,76803.68
-0.0839,76803.6
-0.0838,76803.44
-0.0837,76803.36
-0.0836,76803.52
-0.0835,76803.52
-0.0834,76803.36
-0.0833,76803.2
-0.0832,76803.52
-0.0831,76803.44
-0.083,76803.2
-0.0829,76803.52
-0.0828,76803.6
-0.0827,76803.28
-0.0826,76803.36
-0.0825,76803.36
-0.0824,76803.36
-0.0823,76803.28
-0.0822,76803.52
-0.0821,76803.44
-0.082,76803.68
-0.0819,76803.44
-0.0818,76803.44
-0.0817,76803.44
-0.0816,76803.84
-0.0815,76803.6
-0.0814,76803.6
-0.0813,76803.68
-0.0812,76803.36
-0.0811,76803.52
-0.081,76803.68
-0.0809,76803.28
-0.0808,76803.52
-0.0807,76803.76
-0.0806,76803.68
-0.0805,76803.36
-0.0804,76803.68
-0.0803,76803.52
-0.0802,76803.44
-0.0801,76803.68
-0.08,76803.76
-0.0799,76803.44
-0.0798,76803.6
-0.0797,76803.68
-0.0796,76803.6
-0.0795,76803.52
-0.0794,76803.52
-0.0793,76803.92
-0.0792,76803.52
-0.0791,76803.6
-0.079,76803.76
-0.0789,76803.44
-0.0788,76803.52
-0.0787,76803.6
-0.0786,76803.92
-0.0785,76804.16
-0.0784,76803.84
-0.0783,76803.68
-0.0782,76803.6
-0.0781,76803.76
-0.078,76803.68
-0.0779,76803.44
-0.0778,76803.44
-0.0777,76803.6
-0.0776,76803.52
-0.0775,76803.84
-0.0774,76803.52
-0.0773,76803.44
-0.0772,76803.92
-0.0771,76803.76
-0.077,76803.36
-0.0769,76803.6
-0.0768,76803.52
-0.0767,76803.84
-0.0766,76803.84
-0.0765,76803.44
-0.0764,76803.6
-0.0763,76803.68
-0.0762,76803.76
-0.0761,76803.76
-0.076,76804.08
-0.0759,76803.76
-0.0758,76803.68
-0.0757,76803.84
-0.0756,76804.16
-0.0755,76803.52
-0.0754,76803.52
-0.0753,76803.92
-0.0752,76803.6
-0.0751,76803.92
-0.075,76803.68
-0.0749,76803.68
-0.0748,76804
-0.0747,76803.92
-0.0746,76803.68
-0.0745,76803.84
-0.0744,76803.92
-0.0743,76803.92
-0.0742,76803.84
-0.0741,76803.76
-0.074,76803.84
-0.0739,76803.76
-0.0738,76804.24
-0.0737,76803.76
-0.0736,76804
-0.0735,76803.68
-0.0734,76803.76
-0.0733,76803.52
-0.0732,76803.84
-0.0731,76803.92
-0.073,76803.84
-0.0729,76803.92
-0.0728,76803.84
-0.0727,76804.08
-0.0726,76803.84
-0.0725,76803.84
-0.0724,76803.84
-0.0723,76803.92
-0.0722,76803.68
-0.0721,76804
-0.072,76803.6
-0.0719,76803.76
-0.0718,76804.24
-0.0717,76804.08
-0.0716,76803.84
-0.0715,76803.6
-0.0714,76804
-0.0713,76803.76
-0.0712,76803.84
-0.0711,76804.16
-0.071,76804.16
-0.0709,76803.92
-0.0708,76803.84
-0.0707,76803.84
-0.0706,76803.84
-0.0705,76804
-0.0704,76804.32
-0.0703,76804
-0.0702,76804.24
-0.0701,76803.84
-0.07,76803.92
-0.0699,76804
-0.0698,76803.92
-0.0697,76803.84
-0.0696,76803.92
-0.0695,76804.24
-0.0694,76804.32
-0.0693,76804.16
-0.0692,76804.16
-0.0691,76804.16
-0.069,76803.92
-0.0689,76804
-0.0688,76803.92
-0.0687,76804
-0.0686,76804.32
-0.0685,76804.24
-0.0684,76803.92
-0.0683,76804.08
-0.0682,76804.08
-0.0681,76803.92
-0.068,76804.08
-0.0679,76804.48
-0.0678,76804.08
-0.0677,76804.4
-0.0676,76804.4
-0.0675,76804.08
-0.0674,76804.32
-0.0673,76804.08
-0.0672,76804.16
-0.0671,76804.16
-0.067,76804.08
-0.0669,76804.16
-0.0668,76804.4
-0.0667,76804.32
-0.0666,76804.16
-0.0665,76804
-0.0664,76804.48
-0.0663,76804.16
-0.0662,76804.16
-0.0661,76804.08
-0.066,76804.16
-0.0659,76804.16
-0.0658,76804.08
-0.0657,76804.24
-0.0656,76804.55
-0.0655,76804.32
-0.0654,76804.55
-0.0653,76804.16
-0.0652,76804.24
-0.0651,76804.24
-0.065,76804.16
-0.0649,76804.24
-0.0648,76804.72
-0.0647,76804.55
-0.0646,76804.48
-0.0645,76804.48
-0.0644,76804.4
-0.0643,76804.24
-0.0642,76804.32
-0.0641,76804.32
-0.064,76804.4
-0.0639,76804.48
-0.0638,76804.16
-0.0637,76804.48
-0.0636,76804.64
-0.0635,76804.64
-0.0634,76804.55
-0.0633,76804.72
-0.0632,76804.48
-0.0631,76804.4
-0.063,76804.72
-0.0629,76804.72
-0.0628,76804.48
-0.0627,76804.32
-0.0626,76804.48
-0.0625,76804.72
-0.0624,76804.55
-0.0623,76804.48
-0.0622,76804.88
-0.0621,76804.72
-0.062,76804.88
-0.0619,76804.4
-0.0618,76804.64
-0.0617,76804.55
-0.0616,76804.64
-0.0615,76804.55
-0.0614,76804.4
-0.0613,76804.55
-0.0612,76804.8
-0.0611,76804.72
-0.061,76804.72
-0.0609,76804.48
-0.0608,76804.72
-0.0607,76804.72
-0.0606,76804.64
-0.0605,76804.72
-0.0604,76804.72
-0.0603,76804.8
-0.0602,76804.55
-0.0601,76804.96
-0.06,76804.64
-0.0599,76804.64
-0.0598,76804.72
-0.0597,76804.8
-0.0596,76804.88
-0.0595,76804.64
-0.0594,76804.64
-0.0593,76804.72
-0.0592,76804.64
-0.0591,76805.04
-0.059,76804.64
-0.0589,76804.8
-0.0588,76804.96
-0.0587,76805.04
-0.0586,76805.04
-0.0585,76805.12
-0.0584,76804.88
-0.0583,76804.88
-0.0582,76804.96
-0.0581,76804.64
-0.058,76804.8
-0.0579,76804.88
-0.0578,76804.8
-0.0577,76805.04
-0.0576,76805.04
-0.0575,76804.64
-0.0574,76805.12
-0.0573,76804.72
-0.0572,76805.36
-0.0571,76804.96
-0.057,76804.88
-0.0569,76804.96
-0.0568,76805.28
-0.0567,76805.04
-0.0566,76805.04
-0.0565,76804.88
-0.0564,76805.36
-0.0563,76805.12
-0.0562,76805.2
-0.0561,76804.8
-0.056,76804.96
-0.0559,76804.96
-0.0558,76805.2
-0.0557,76805.04
-0.0556,76805.2
-0.0555,76805.12
-0.0554,76805.04
-0.0553,76805.12
-0.0552,76805.12
-0.0551,76805.28
-0.055,76804.96
-0.0549,76805.2
-0.0548,76805.12
-0.0547,76805.28
-0.0546,76805.28
-0.0545,76805.2
-0.0544,76804.8
-0.0543,76805.36
-0.0542,76805.04
-0.0541,76804.88
-0.054,76805.28
-0.0539,76805.04
-0.0538,76805.44
-0.0537,76805.44
-0.0536,76805.36
-0.0535,76805.76
-0.0534,76805.44
-0.0533,76805.2
-0.0532,76805.6
-0.0531,76805.44
-0.053,76805.36
-0.0529,76805.6
-0.0528,76805.44
-0.0527,76805.6
-0.0526,76805.36
-0.0525,76805.36
-0.0524,76805.36
-0.0523,76805.04
-0.0522,76805.52
-0.0521,76805.6
-0.052,76805.36
-0.0519,76805.92
-0.0518,76805.68
-0.0517,76805.6
-0.0516,76805.44
-0.0515,76805.6
-0.0514,76805.52
-0.0513,76805.68
-0.0512,76805.52
-0.0511,76805.68
-0.051,76805.52
-0.0509,76806.08
-0.0508,76805.6
-0.0507,76805.68
-0.0506,76805.84
-0.0505,76805.76
-0.0504,76805.84
-0.0503,76805.6
-0.0502,76805.76
-0.0501,76806
-0.05,76806.08
-0.0499,76806
-0.0498,76805.76
-0.0497,76806.24
-0.0496,76805.92
-0.0495,76806.08
-0.0494,76806.08
-0.0493,76806
-0.0492,76806.24
-0.0491,76806.16
-0.049,76805.92
-0.0489,76805.92
-0.0488,76806.24
-0.0487,76805.84
-0.0486,76806.32
-0.0485,76806.08
-0.0484,76806.24
-0.0483,76806.24
-0.0482,76805.92
-0.0481,76806.16
-0.048,76806.08
-0.0479,76806.32
-0.0478,76806.4
-0.0477,76806.32
-0.0476,76805.68
-0.0475,76806.32
-0.0474,76806.4
-0.0473,76806.32
-0.0472,76806.08
-0.0471,76806.24
-0.047,76806.32
-0.0469,76806.55
-0.0468,76806.55
-0.0467,76806.72
-0.0466,76806.24
-0.0465,76806.24
-0.0464,76806.4
-0.0463,76806.4
-0.0462,76806.08
-0.0461,76806.08
-0.046,76806.4
-0.0459,76806.48
-0.0458,76806.55
-0.0457,76806.24
-0.0456,76806.64
-0.0455,76806.4
-0.0454,76806.32
-0.0453,76806.32
-0.0452,76806.08
-0.0451,76806.16
-0.045,76806.4
-0.0449,76806.64
-0.0448,76806.64
-0.0447,76806.32
-0.0446,76806.16
-0.0445,76806.16
-0.0444,76806.55
-0.0443,76806.48
-0.0442,76806.48
-0.0441,76806
-0.044,76806.55
-0.0439,76806.4
-0.0438,76806.55
-0.0437,76806.55
-0.0436,76806.32
-0.0435,76806.4
-0.0434,76806.55
-0.0433,76806.55
-0.0432,76806.55
-0.0431,76806.55
-0.043,76806.4
-0.0429,76806.64
-0.0428,76806.48
-0.0427,76806.64
-0.0426,76806.55
-0.0425,76806.4
-0.0424,76806.48
-0.0423,76806.8
-0.0422,76806.55
-0.0421,76806.8
-0.042,76806.48
-0.0419,76806.55
-0.0418,76806.32
-0.0417,76806.64
-0.0416,76806.72
-0.0415,76806.72
-0.0414,76806.32
-0.0413,76806.72
-0.0412,76806.96
-0.0411,76806.72
-0.041,76806.48
-0.0409,76806.8
-0.0408,76806.72
-0.0407,76806.8
-0.0406,76806.64
-0.0405,76806.72
-0.0404,76806.8
-0.0403,76806.55
-0.0402,76806.55
-0.0401,76806.8
-0.04,76806.64
-0.0399,76806.55
-0.0398,76806.64
-0.0397,76806.55
-0.0396,76806.8
-0.0395,76807.04
-0.0394,76806.8
-0.0393,76806.8
-0.0392,76806.72
-0.0391,76806.55
-0.039,76806.72
-0.0389,76806.88
-0.0388,76807.12
-0.0387,76806.08
-0.0386,76806.64
-0.0385,76806.8
-0.0384,76806.48
-0.0383,76807.04
-0.0382,76807.12
-0.0381,76806.88
-0.038,76807.04
-0.0379,76806.55
-0.0378,76806.48
-0.0377,76806.72
-0.0376,76806.64
-0.0375,76807.04
-0.0374,76806.55
-0.0373,76806.8
-0.0372,76806.55
-0.0371,76806.64
-0.037,76806.72
-0.0369,76806.64
-0.0368,76806.64
-0.0367,76806.55
-0.0366,76806.64
-0.0365,76806.64
-0.0364,76806.88
-0.0363,76806.32
-0.0362,76806.32
-0.0361,76806.4
-0.036,76806.48
-0.0359,76806.48
-0.0358,76806.72
-0.0357,76806.48
-0.0356,76806.55
-0.0355,76806.55
-0.0354,76806.16
-0.0353,76806.55
-0.0352,76806.48
-0.0351,76806.55
-0.035,76806.24
-0.0349,76806.4
-0.0348,76806.24
-0.0347,76806.4
-0.0346,76806.32
-0.0345,76806.16
-0.0344,76806.48
-0.0343,76806.16
-0.0342,76806.24
-0.0341,76806.32
-0.034,76806.16
-0.0339,76805.92
-0.0338,76806.16
-0.0337,76805.92
-0.0336,76806.16
-0.0335,76806.24
-0.0334,76806.48
-0.0333,76806.16
-0.0332,76806.16
-0.0331,76806
-0.033,76806.16
-0.0329,76805.92
-0.0328,76806.16
-0.0327,76805.92
-0.0326,76806
-0.0325,76805.84
-0.0324,76805.84
-0.0323,76806
-0.0322,76806.08
-0.0321,76806.16
-0.032,76805.76
-0.0319,76805.76
-0.0318,76805.92
-0.0317,76806
-0.0316,76805.92
-0.0315,76806.16
-0.0314,76806.08
-0.0313,76805.52
-0.0312,76805.84
-0.0311,76805.84
-0.031,76805.68
-0.0309,76805.76
-0.0308,76805.6
-0.0307,76805.52
-0.0306,76805.76
-0.0305,76805.36
-0.0304,76805.6
-0.0303,76805.44
-0.0302,76805.52
-0.0301,76805.52
-0.03,76805.84
-0.0299,76805.52
-0.0298,76805.36
-0.0297,76805.36
-0.0296,76805.52
-0.0295,76805.6
-0.0294,76805.2
-0.0293,76805.44
-0.0292,76805.36
-0.0291,76805.68
-0.029,76805.2
-0.0289,76805.44
-0.0288,76805.6
-0.0287,76805.2
-0.0286,76805.36
-0.0285,76805.2
-0.0284,76804.96
-0.0283,76805.12
-0.0282,76805.28
-0.0281,76805.12
-0.028,76804.55
-0.0279,76804.96
-0.0278,76804.88
-0.0277,76804.88
-0.0276,76804.8
-0.0275,76804.88
-0.0274,76804.88
-0.0273,76804.8
-0.0272,76804.55
-0.0271,76804.55
-0.027,76804.4
-0.0269,76804.4
-0.0268,76804.55
-0.0267,76804.55
-0.0266,76804.55
-0.0265,76804.72
-0.0264,76804.4
-0.0263,76804.32
-0.0262,76804.08
-0.0261,76804.4
-0.026,76804.48
-0.0259,76804.16
-0.0258,76804.16
-0.0257,76804.4
-0.0256,76804.16
-0.0255,76803.92
-0.0254,76804
-0.0253,76804
-0.0252,76804.16
-0.0251,76804.08
-0.025,76803.92
-0.0249,76804
-0.0248,76803.76
-0.0247,76803.6
-0.0246,76804
-0.0245,76803.84
-0.0244,76803.84
-0.0243,76803.68
-0.0242,76803.84
-0.0241,76803.68
-0.024,76803.36
-0.0239,76803.52
-0.0238,76803.52
-0.0237,76803.52
-0.0236,76803.44
-0.0235,76803.36
-0.0234,76803.52
-0.0233,76803.44
-0.0232,76803.44
-0.0231,76803.52
-0.023,76803.28
-0.0229,76803.04
-0.0228,76803.12
-0.0227,76803.04
-0.0226,76803.2
-0.0225,76803.2
-0.0224,76803.04
-0.0223,76803.36
-0.0222,76803.44
-0.0221,76803.2
-0.022,76803.28
-0.0219,76803.2
-0.0218,76803.28
-0.0217,76803.28
-0.0216,76802.96
-0.0215,76803.2
-0.0214,76802.88
-0.0213,76803.12
-0.0212,76803.12
-0.0211,76802.88
-0.021,76802.88
-0.0209,76803.2
-0.0208,76803.28
-0.0207,76803.12
-0.0206,76803.04
-0.0205,76803.52
-0.0204,76803.2
-0.0203,76802.96
-0.0202,76803.76
-0.0201,76803.52
-0.02,76803.44
-0.0199,76803.52
-0.0198,76803.68
-0.0197,76804.16
-0.0196,76803.76
-0.0195,76803.6
-0.0194,76803.92
-0.0193,76803.44
-0.0192,76803.92
-0.0191,76803.84
-0.019,76803.92
-0.0189,76804
-0.0188,76804
-0.0187,76804.24
-0.0186,76804.24
-0.0185,76803.76
-0.0184,76803.76
-0.0183,76804.16
-0.0182,76803.76
-0.0181,76803.6
-0.018,76803.76
-0.0179,76804
-0.0178,76803.92
-0.0177,76803.84
-0.0176,76803.92
-0.0175,76803.92
-0.0174,76803.92
-0.0173,76803.68
-0.0172,76803.84
-0.0171,76804.24
-0.017,76803.76
-0.0169,76803.84
-0.0168,76804
-0.0167,76803.84
-0.0166,76803.68
-0.0165,76804.08
-0.0164,76803.68
-0.0163,76803.92
-0.0162,76803.52
-0.0161,76803.76
-0.016,76803.84
-0.0159,76804
-0.0158,76804
-0.0157,76803.76
-0.0156,76803.84
-0.0155,76803.92
-0.0154,76803.76
-0.0153,76803.76
-0.0152,76804
-0.0151,76803.84
-0.015,76803.52
-0.0149,76803.68
-0.0148,76803.84
-0.0147,76803.76
-0.0146,76804.08
-0.0145,76803.76
-0.0144,76803.84
-0.0143,76803.84
-0.0142,76803.92
-0.0141,76804
-0.014,76803.68
-0.0139,76803.6
-0.0138,76803.68
-0.0137,76803.84
-0.0136,76803.68
-0.0135,76803.76
-0.0134,76803.76
-0.0133,76803.84
-0.0132,76803.92
-0.0131,76803.68
-0.013,76803.6
-0.0129,76803.92
-0.0128,76803.92
-0.0127,76803.76
-0.0126,76803.84
-0.0125,76803.6
-0.0124,76803.68
-0.0123,76803.84
-0.0122,76803.6
-0.0121,76803.76
-0.012,76803.92
-0.0119,76803.6
-0.0118,76803.68
-0.0117,76803.92
-0.0116,76803.68
-0.0115,76804.08
-0.0114,76803.92
-0.0113,76803.44
-0.0112,76804.16
-0.0111,76803.68
-0.011,76803.84
-0.0109,76803.6
-0.0108,76803.84
-0.0107,76803.52
-0.0106,76803.92
-0.0105,76803.84
-0.0104,76803.52
-0.0103,76804
-0.0102,76803.52
-0.0101,76803.6
-0.01,76803.52
-0.00990000000000001,76803.68
-0.0098,76803.92
-0.0097,76803.76
-0.0096,76803.68
-0.00949999999999999,76803.6
-0.00940000000000001,76803.92
-0.0093,76803.76
-0.0092,76803.92
-0.0091,76804
-0.00899999999999999,76803.44
-0.00890000000000001,76803.6
-0.0088,76803.44
-0.0087,76803.76
-0.0086,76803.52
-0.00849999999999999,76803.68
-0.0084,76803.6
-0.0083,76803.84
-0.0082,76803.6
-0.0081,76803.84
-0.00799999999999999,76803.28
-0.0079,76803.52
-0.0078,76803.76
-0.0077,76803.52
-0.0076,76803.44
-0.00749999999999999,76803.44
-0.0074,76803.76
-0.0073,76803.84
-0.0072,76803.68
-0.0071,76803.52
-0.00700000000000001,76804
-0.0069,76803.6
-0.0068,76803.68
-0.0067,76803.92
-0.00659999999999999,76803.6
-0.00650000000000001,76803.36
-0.0064,76803.52
-0.0063,76803.68
-0.0062,76803.6
-0.00609999999999999,76803.44
-0.00600000000000001,76803.2
-0.0059,76803.6
-0.0058,76803.6
-0.0057,76803.44
-0.00559999999999999,76803.52
-0.0055,76803.52
-0.0054,76803.76
-0.0053,76803.52
-0.0052,76803.52
-0.00509999999999999,76803.44
-0.005,76803.12
-0.0049,76803.68
-0.0048,76803.68
-0.0047,76803.68
-0.00459999999999999,76803.76
-0.0045,76803.36
-0.0044,76803.6
-0.0043,76803.44
-0.0042,76803.84
-0.00409999999999999,76803.6
-0.004,76803.68
-0.0039,76803.44
-0.0038,76803.44
-0.00369999999999999,76803.28
-0.00360000000000001,76803.12
-0.0035,76803.6
-0.0034,76803.36
-0.0033,76803.6
-0.00319999999999999,76803.44
-0.00310000000000001,76803.28
-0.003,76803.44
-0.0029,76803.44
-0.0028,76803.44
-0.00269999999999999,76803.76
-0.00260000000000001,76803.44
-0.0025,76803.12
-0.0024,76803.44
-0.0023,76803.6
-0.00219999999999999,76803.52
-0.0021,76803.2
-0.002,76803.44
-0.0019,76803.6
-0.0018,76803.44
-0.00169999999999999,76803.2
-0.0016,76803.44
-0.0015,76803.12
-0.0014,76803.44
-0.0013,76803.76
-0.00119999999999999,76803.36
-0.0011,76803.28
-0.001,76803.44
-0.000899999999999998,76803.76
-0.000799999999999995,76803.36
-0.000699999999999992,76803.6
-0.000600000000000003,76803.36
-0.0005,76803.2
-0.000399999999999998,76803.6
-0.000299999999999995,76803.28
-0.000200000000000006,76803.76
-0.000100000000000003,76803.6
0,76803.2
0.000100000000000003,76803.52
0.000200000000000006,76803.52
0.000299999999999995,76803.52
0.000399999999999998,76803.68
0.0005,76803.52
0.000600000000000003,76803.36
0.000700000000000006,76803.36
0.000799999999999995,76803.52
0.000899999999999998,76803.76
0.001,76803.44
0.0011,76803.52
0.00120000000000001,76803.68
0.0013,76803.68
0.0014,76803.36
0.0015,76803.2
0.0016,76803.44
0.00170000000000001,76803.6
0.0018,76803.6
0.0019,76803.6
0.002,76803.84
0.0021,76803.52
0.00220000000000001,76803.36
0.0023,76803.44
0.0024,76803.52
0.0025,76803.68
0.00260000000000001,76803.6
0.00270000000000001,76803.68
0.0028,76803.68
0.0029,76803.6
0.003,76803.36
0.00310000000000001,76803.6
0.00319999999999999,76803.84
0.0033,76803.52
0.0034,76803.68
0.0035,76803.68
0.00360000000000001,76803.52
0.00369999999999999,76803.76
0.0038,76803.68
0.0039,76803.92
0.004,76803.68
0.00410000000000001,76803.52
0.0042,76804
0.0043,76803.68
0.0044,76803.52
0.0045,76804.16
0.00460000000000001,76803.76
0.0047,76803.68
0.0048,76804
0.0049,76803.84
0.005,76803.68
0.00510000000000001,76803.76
0.0052,76804
0.0053,76804
0.0054,76803.92
0.0055,76803.76
0.00560000000000001,76803.6
0.0057,76804
0.0058,76803.92
0.0059,76803.84
0.00600000000000001,76803.92
0.00609999999999999,76803.76
0.0062,76803.92
0.0063,76803.68
0.0064,76803.92
0.00650000000000001,76804
0.00659999999999999,76803.92
0.0067,76804.08
0.0068,76803.84
0.0069,76804.24
0.00700000000000001,76804.24
0.0071,76804.4
0.0072,76804
0.0073,76804
0.0074,76804.08
0.00750000000000001,76803.84
0.0076,76803.84
0.0077,76803.92
0.0078,76804.4
0.0079,76804.08
0.00800000000000001,76804.4
0.0081,76804.4
0.0082,76804.16
0.0083,76804
0.0084,76803.92
0.00850000000000001,76804.32
0.0086,76804.16
0.0087,76803.92
0.0088,76804.08
0.00890000000000001,76804.32
0.00900000000000001,76804.16
0.0091,76804.48
0.0092,76804
0.0093,76803.84
0.00940000000000001,76804.16
0.00949999999999999,76803.84
0.0096,76803.92
0.0097,76804.32
0.0098,76804.08
0.00990000000000001,76803.76
0.01,76803.92
0.0101,76804.4
0.0102,76804.08
0.0103,76804.4
0.0104,76804.08
0.0105,76804.24
0.0106,76803.92
0.0107,76804
0.0108,76804
0.0109,76803.92
0.011,76804.16
0.0111,76804
0.0112,76803.84
0.0113,76804.08
0.0114,76804.24
0.0115,76803.84
0.0116,76803.84
0.0117,76804
0.0118,76803.84
0.0119,76804.08
0.012,76803.76
0.0121,76804.16
0.0122,76803.84
0.0123,76803.84
0.0124,76803.84
0.0125,76803.52
0.0126,76803.84
0.0127,76803.68
0.0128,76803.84
0.0129,76803.76
0.013,76803.76
0.0131,76803.68
0.0132,76803.68
0.0133,76803.52
0.0134,76803.68
0.0135,76803.6
0.0136,76803.52
0.0137,76803.36
0.0138,76803.68
0.0139,76803.52
0.014,76803.36
0.0141,76803.44
0.0142,76803.28
0.0143,76803.44
0.0144,76803.28
0.0145,76803.28
0.0146,76803.44
0.0147,76803.2
0.0148,76803.2
0.0149,76802.64
0.015,76803.28
0.0151,76803.04
0.0152,76803.04
0.0153,76802.88
0.0154,76803.04
0.0155,76803.04
0.0156,76802.88
